{
    "_id": "BHq5wpQU8hQEke8D",
    "data": {
        "attributes": {
            "ac": {
                "value": 10
            },
            "hardness": 3,
            "hasHealth": true,
            "hp": {
                "details": "",
                "max": 12,
                "temp": 0,
                "tempmax": 0,
                "value": 12
            },
            "stealth": {
                "details": "(or 0 if the trapdoor is disabled or broken)",
                "value": 8
            }
        },
        "creatureType": "",
        "details": {
            "description": "A wooden trapdoor covers a pit that's 10 feet square and 20 feet deep.",
            "disable": "Thievery DC 12 to remove the trapdoor",
            "isComplex": false,
            "level": 0,
            "reset": "Creatures can still fall into the trap, but the trapdoor must be reset manually for the trap to become hidden again.",
            "routine": ""
        },
        "flavourText": "",
        "nethysUrl": "",
        "recallKnowledgeText": "",
        "saves": {
            "fortitude": {
                "rank": 0,
                "saveDetail": "",
                "value": 1
            },
            "reflex": {
                "rank": 0,
                "saveDetail": "",
                "value": 1
            },
            "will": {
                "rank": 0,
                "saveDetail": "",
                "value": 0
            }
        },
        "schema": {
            "version": {
                "value": ""
            }
        },
        "sidebarText": "",
        "source": {
            "value": ""
        },
        "statusEffects": [],
        "traits": {
            "ci": [],
            "di": {
                "custom": "",
                "selected": {},
                "value": [
                    "critical-hits",
                    "object-immunities",
                    "precision"
                ]
            },
            "dr": [],
            "dv": [],
            "traits": {
                "custom": "",
                "value": [
                    "mechanical"
                ]
            }
        }
    },
    "effects": [],
    "flags": {},
    "img": "systems/pf2e/icons/default-icons/hazard.svg",
    "items": [
        {
            "_id": "lY83oUjx0DLxDByK",
            "data": {
                "actionCategory": {
                    "value": ""
                },
                "actionType": {
                    "value": "reaction"
                },
                "actions": {
                    "value": ""
                },
                "description": {
                    "chat": "",
                    "unidentified": "",
                    "value": "<p><strong>Trigger</strong> A creature walks onto the trapdoor. <br /><strong>Effect</strong> The triggering creature falls in and takes falling damage (typically 10 bludgeoning damage). That creature can use the Grab an Edge reaction to avoid falling.</p>"
                },
                "rarity": {
                    "value": "common"
                },
                "requirements": {
                    "value": ""
                },
                "rules": [],
                "source": {
                    "value": ""
                },
                "traits": {
                    "custom": "",
                    "rarity": {
                        "value": "common"
                    },
                    "value": []
                },
                "trigger": {
                    "value": ""
                },
                "usage": {
                    "value": "held-in-one-hand"
                },
                "weapon": {
                    "value": ""
                }
            },
            "effects": [],
            "flags": {},
            "img": "systems/pf2e/icons/actions/Reaction.png",
            "name": "Pitfall",
            "type": "action"
        }
    ],
    "name": "Hidden Pit",
    "permission": {
        "default": 0
    },
    "token": {
        "actorData": {},
        "actorId": "BHq5wpQU8hQEke8D",
        "actorLink": false,
        "bar1": {},
        "bar2": {},
        "brightLight": 0,
        "brightSight": 0,
        "dimLight": 0,
        "dimSight": 0,
        "displayBars": 0,
        "displayName": 0,
        "disposition": -1,
        "flags": {},
        "height": 1,
        "img": "systems/pf2e/icons/default-icons/hazard.svg",
        "lightAlpha": 1,
        "lightAngle": 360,
        "lockRotation": false,
        "name": "Hidden Pit",
        "randomImg": false,
        "rotation": 0,
        "scale": 1,
        "sightAngle": 360,
        "tint": null,
        "vision": false,
        "width": 1
    },
    "type": "hazard"
}
