{
    "_id": "5RGLAPi5sLykRcmm",
    "data": {
        "boosts": {
            "0": {
                "value": [
                    "cha",
                    "wis"
                ]
            },
            "1": {
                "value": [
                    "cha",
                    "con",
                    "dex",
                    "int",
                    "str",
                    "wis"
                ]
            }
        },
        "description": {
            "chat": "",
            "unidentified": "",
            "value": "<p>You have always felt a connection to animals, and it was only a small leap to learn to train them. As you travel, you continuously encounter different creatures, befriending them along the way.</p>\n<p>Choose two ability boosts. One must be to <strong>Wisdom</strong> or <strong>Charisma</strong>, and one is a free ability boost.</p>\n<p>You're trained in the Nature skill and a Lore skill related to one terrain inhabited by animals you like (such as Plains Lore or Swamp Lore). You gain the @Compendium[pf2e.feats-srd.Train Animal]{Train Animal} skill feat.</p>"
        },
        "items": {
            "e036p": {
                "id": "nowEaHgIyij7im8F",
                "img": "systems/pf2e/icons/features/feats/feats.jpg",
                "level": "1",
                "name": "Train Animal",
                "pack": "pf2e.feats-srd"
            }
        },
        "rarity": {
            "value": "common"
        },
        "rules": [],
        "source": {
            "value": ""
        },
        "trainedLore": "<Terrain> Lore",
        "trainedSkills": {
            "value": [
                "nat"
            ]
        },
        "traits": {
            "custom": "",
            "rarity": {
                "value": "common"
            },
            "value": []
        },
        "usage": {
            "value": "held-in-one-hand"
        }
    },
    "effects": [],
    "flags": {},
    "img": "icons/svg/mystery-man.svg",
    "name": "Animal Whisperer",
    "permission": {
        "default": 0
    },
    "type": "background"
}
