{
    "_id": "j2G71vQahw1DiWpO",
    "data": {
        "boosts": {
            "0": {
                "value": [
                    "cha",
                    "int"
                ]
            },
            "1": {
                "value": [
                    "cha",
                    "con",
                    "dex",
                    "int",
                    "str",
                    "wis"
                ]
            }
        },
        "description": {
            "chat": "",
            "unidentified": "",
            "value": "<p>You are the victim of a personal or hereditary curse. Through great effort and occult study, you have learned to fend off the curse's worst effects and, by extension, you can protect yourself against other harmful magic. However, the curse still hangs over you and sometimes manifests in dangerous ways.</p>\n<p>Choose two ability boosts. One must be to <strong>Intelligence</strong> or <strong>Charisma</strong>, and one is a free ability boost.</p>\n<p>You are trained in Occultism and Curse Lore. You gain the @Compendium[pf2e.actionspf2e.Warding Sign]{Warding Sign} reaction. You and the GM should determine the full effects of the curse, though you've staved most of them off for now. The GM determines the curse's lingering manifestations on you, which usually include at least a constant or very frequent thematic effect and occasional more dangerous effects.</p>"
        },
        "items": {},
        "rarity": {
            "value": "common"
        },
        "rules": [],
        "source": {
            "value": ""
        },
        "trainedLore": "Curse Lore",
        "trainedSkills": {
            "value": [
                "occ"
            ]
        },
        "traits": {
            "custom": "",
            "rarity": {
                "value": "rare"
            },
            "value": []
        },
        "usage": {
            "value": "held-in-one-hand"
        }
    },
    "effects": [],
    "flags": {},
    "img": "icons/svg/mystery-man.svg",
    "name": "Cursed",
    "permission": {
        "default": 0
    },
    "type": "background"
}
