{
    "_id": "IObZEUz8wneEMgR3",
    "data": {
        "boosts": {
            "0": {
                "value": [
                    "dex",
                    "str"
                ]
            },
            "1": {
                "value": [
                    "cha",
                    "con",
                    "dex",
                    "int",
                    "str",
                    "wis"
                ]
            }
        },
        "description": {
            "chat": "",
            "unidentified": "",
            "value": "<p>The rolling waves of the high seas, the constant sway of the deck underfoot, and the creaking heights of a ship's rigging are as familiar to you as solid ground. You might have worked on a simple fishing boat, a wealthy merchant's galley, a mighty warship - or even a pirate's caravel. Whether your crew retired, your ship sank, or you've turned to adventuring so you can keep all the treasure for yourself, you still retain an excellent sense of balance and quick reflexes.</p>\n<p>Choose two ability boosts. One must be to <strong>Dexterity</strong> or <strong>Strength</strong> and one is a free ability boost.</p>\n<p>You're trained in the Acrobatics skill, and the Sailing Lore skill. You gain the @Compendium[pf2e.feats-srd.Cat Fall]{Cat Fall} skill feat.</p>"
        },
        "items": {
            "5i1qz": {
                "id": "LQw0yIMDUJJkq1nD",
                "img": "systems/pf2e/icons/features/feats/feats.jpg",
                "level": "1",
                "name": "Cat Fall",
                "pack": "pf2e.feats-srd"
            }
        },
        "rarity": {
            "value": "common"
        },
        "rules": [],
        "source": {
            "value": ""
        },
        "trainedLore": "Sailing Lore",
        "trainedSkills": {
            "value": [
                "acr"
            ]
        },
        "traits": {
            "custom": "",
            "rarity": {
                "value": "common"
            },
            "value": []
        }
    },
    "effects": [],
    "flags": {},
    "img": "icons/svg/mystery-man.svg",
    "name": "Deckhand",
    "permission": {
        "default": 0
    },
    "type": "background"
}
