{
    "_id": "vBPu7RwNXGDQ1ThL",
    "data": {
        "boosts": {
            "0": {
                "value": [
                    "str",
                    "wis"
                ]
            },
            "1": {
                "value": [
                    "cha",
                    "con",
                    "dex",
                    "int",
                    "str",
                    "wis"
                ]
            }
        },
        "description": {
            "chat": "",
            "unidentified": "",
            "value": "<p>You spent your early days in the aftermath of one of the great ravenings. You survived thanks to your resourcefulness and perhaps your patron's favor and were blessed with skills and drive thereafter, but you must always hold to his standards, lest the hunger from the depths seek you out once again.</p>\n<p>Choose two ability boosts. One must be to <strong>Strength</strong> or <strong>Wisdom</strong>, and one is a free ability boost.</p>\n<p>You're trained in the Survival skill and the Zevgavizeb Lore skill. You gain the @Compendium[pf2e.feats-srd.Ravening's Desperation]{Ravening's Desperation} skill feat.</p>"
        },
        "items": {
            "wge7i": {
                "id": "d8AjCqU30z7IOpos",
                "img": "systems/pf2e/icons/features/feats/feats.jpg",
                "level": "1",
                "name": "Ravening's Desperation",
                "pack": "pf2e.feats-srd"
            }
        },
        "rarity": {
            "value": "common"
        },
        "rules": [],
        "source": {
            "value": ""
        },
        "trainedLore": "Zevgavizeb Lore",
        "trainedSkills": {
            "value": [
                "sur"
            ]
        },
        "traits": {
            "custom": "",
            "rarity": {
                "value": "uncommon"
            },
            "value": []
        },
        "usage": {
            "value": "held-in-one-hand"
        }
    },
    "effects": [],
    "flags": {},
    "img": "icons/svg/mystery-man.svg",
    "name": "Dreamer of the Verdant Moon",
    "permission": {
        "default": 0
    },
    "type": "background"
}
