{
    "_id": "5Q5MfHX43Sjm8C6Z",
    "data": {
        "baseItem": null,
        "brokenThreshold": {
            "value": 0
        },
        "bulkCapacity": {
            "value": ""
        },
        "collapsed": {
            "value": false
        },
        "containerId": {
            "value": ""
        },
        "description": {
            "chat": "",
            "unidentified": "",
            "value": "<p>A Large or smaller restrained or willing creature can be executed by a <em>final blade</em>. As an artifact, a <em>final blade</em> cannot be harmed by any but a very specific means.</p>\n<p><strong>Activate</strong> 1 minute (Interact)</p>\n<p><strong>Effect</strong> You execute a creature restrained beneath the blade. The executed creature takes 11d10 slashing damage and must succeed at a DC 45 Fortitude save or be decapitated as though it suffered a critical hit with a natural 20 from a +3 major striking vorpal scythe.</p>\n<p>The soul of a creature executed with a final blade is trapped, and the creature can't be returned to life through any means, even a miracle<em> or</em> similar magic. A <em>final blade</em> can hold any number of souls in this way, and they can be released only through a complex ritual known only to the Gray Gardeners or through the destruction of the <em>final blade</em>.</p>"
        },
        "equipped": {
            "value": false
        },
        "equippedBulk": {
            "value": ""
        },
        "hardness": {
            "value": 0
        },
        "hp": {
            "value": 0
        },
        "identification": {
            "status": "identified"
        },
        "identified": {
            "value": true
        },
        "invested": {
            "value": false
        },
        "level": {
            "value": "20"
        },
        "maxHp": {
            "value": 0
        },
        "negateBulk": {
            "value": "0"
        },
        "preciousMaterial": {
            "value": ""
        },
        "preciousMaterialGrade": {
            "value": ""
        },
        "price": {
            "value": null
        },
        "quantity": {
            "value": "1"
        },
        "rarity": {
            "value": "common"
        },
        "rules": [],
        "size": {
            "value": "med"
        },
        "source": {
            "value": ""
        },
        "stackGroup": {
            "value": ""
        },
        "traits": {
            "custom": "",
            "rarity": {
                "value": "rare"
            },
            "usage": {
                "value": "held-in-one-hand"
            },
            "value": [
                "artifact",
                "death",
                "evil",
                "necromancy",
                "occult"
            ]
        },
        "usage": {
            "value": "held-in-one-hand"
        },
        "weight": {
            "value": "40"
        }
    },
    "effects": [],
    "flags": {},
    "img": "systems/pf2e/icons/equipment/artifacts/final-blade.jpg",
    "name": "Final Blade",
    "permission": {
        "default": 0
    },
    "type": "equipment"
}
