{
    "_id": "OIs6WPuCRh2UJTOe",
    "data": {
        "MAP": {
            "value": ""
        },
        "ability": {
            "value": "str"
        },
        "baseItem": "longsword",
        "bonus": {
            "value": 2
        },
        "bonusDamage": {
            "value": 0
        },
        "brokenThreshold": {
            "value": 0
        },
        "bulkCapacity": {
            "value": ""
        },
        "collapsed": {
            "value": false
        },
        "containerId": {
            "value": ""
        },
        "damage": {
            "damageType": "slashing",
            "dice": 1,
            "die": "d8",
            "value": ""
        },
        "description": {
            "chat": "",
            "unidentified": "",
            "value": "<section class=\"content\">\n<p>The gleaming holy avenger is the iconic weapon of powerful paladins. The crossbar of this +2 greater striking @Compendium[pf2e.equipment-srd.Holy]{Holy} cold iron longsword is styled to look like angel wings. Tradition holds that those who see their reflection in a holy avenger's highly polished blade have their faults laid bare. If you are evil, you are enfeebled 2 while carrying or wielding this weapon.</p>\n<hr />\n<p><strong>Activate</strong> <span style=\"font-family: 'Pathfinder2eActions'; font-size: 1.8em; display: inline;\">D</span> command, Interact</p>\n<p><strong>Frequency</strong> once per hour</p>\n<p><strong>Effect</strong> You command the sword and point it at a creature you can see. The sword casts @Compendium[pf2e.spells-srd.Detect Alignment]{Detect Alignment} to detect evil, but this targets only the selected creature instead of detecting in an area.</p>\n<hr />\n<p><strong>Paladin Wielder</strong> If you're a champion of the paladin cause, you also gain the following two benefits.</p>\n<ul>\n<li>When you critically hit an evil creature with the <em>holy avenger</em>, the creature is slowed 1 and enfeebled 2 for 1 round.</li>\n<li>You can activate the sword in the following way.</li>\n</ul>\n<p><strong>Activate</strong> <span style=\"font-family: 'Pathfinder2eActions'; font-size: 1.8em; display: inline;\">A</span> command</p>\n<p><strong>Frequency</strong> once per day</p>\n<p><strong>Requirements</strong> You hit a creature using the <em>holy avenger</em> on your previous action</p>\n<p><strong>Effect</strong> You cast @Compendium[pf2e.spells-srd.Dispel Magic]{Dispel Magic} at the same level as your champion focus spells. It must target an illusion the creature you hit created, a spell affecting the creature you hit, or an item the creature you hit wears or carries. The spell or item you attempt to counteract must be within 120 feet of you.</p>\n<hr />\n<p><strong>Craft Requirements</strong> You are a champion with the paladin cause; supply a casting of <em>detect alignment</em> and <em>dispel magic</em>. The initial raw materials must include 120 gp of cold iron.</p>\n</section>"
        },
        "equipped": {
            "value": false
        },
        "equippedBulk": {
            "value": ""
        },
        "group": {
            "value": "sword"
        },
        "hands": {
            "value": ""
        },
        "hardness": {
            "value": 0
        },
        "hp": {
            "value": 0
        },
        "identification": {
            "status": "identified"
        },
        "identified": {
            "value": true
        },
        "invested": {
            "value": false
        },
        "level": {
            "value": 14
        },
        "maxHp": {
            "value": 0
        },
        "negateBulk": {
            "value": "0"
        },
        "potencyRune": {
            "value": "2"
        },
        "preciousMaterial": {
            "value": "coldIron"
        },
        "preciousMaterialGrade": {
            "value": "standard"
        },
        "price": {
            "value": "4,500 gp"
        },
        "property1": {
            "critDamage": "",
            "critDamageType": "",
            "critDice": null,
            "critDie": "",
            "criticalConditionType": "",
            "criticalConditionValue": null,
            "damageType": "",
            "dice": null,
            "die": "",
            "strikeConditionType": "",
            "strikeConditionValue": null,
            "value": ""
        },
        "propertyRune1": {
            "value": "holy"
        },
        "propertyRune2": {
            "value": ""
        },
        "propertyRune3": {
            "value": ""
        },
        "propertyRune4": {
            "value": ""
        },
        "quantity": {
            "value": 1
        },
        "range": {
            "value": "melee"
        },
        "rarity": {
            "value": "common"
        },
        "reload": {
            "value": ""
        },
        "rules": [],
        "size": {
            "value": "med"
        },
        "source": {
            "value": ""
        },
        "splashDamage": {
            "value": null
        },
        "stackGroup": {
            "value": ""
        },
        "strikingRune": {
            "value": "greaterStriking"
        },
        "traits": {
            "custom": "",
            "rarity": {
                "value": "uncommon"
            },
            "value": [
                "divine",
                "evocation",
                "good",
                "lawful",
                "versatile-p"
            ]
        },
        "usage": {
            "value": "held-in-one-hand"
        },
        "weaponType": {
            "value": "martial"
        },
        "weight": {
            "value": "1"
        }
    },
    "effects": [],
    "flags": {},
    "img": "systems/pf2e/icons/equipment/weapons/specific-magic-weapons/holy-avenger.jpg",
    "name": "Holy Avenger",
    "permission": {
        "default": 0
    },
    "type": "weapon"
}
