{
    "_id": "ElHAsHIzsVQZp8WW",
    "data": {
        "baseItem": null,
        "brokenThreshold": {
            "value": 0
        },
        "bulkCapacity": {
            "value": ""
        },
        "collapsed": {
            "value": false
        },
        "containerId": {
            "value": ""
        },
        "description": {
            "chat": "",
            "unidentified": "",
            "value": "<p><strong>Activate</strong> 1 minute (Interact)</p>\n<p>This tiny, carved walnut shell contains a sacred mountain within. You can only activate <em>mountain to the sky</em> on an unoccupied patch of earth or soil. When activated, the walnut transforms into an impossibly steep mountain, 5,000 feet tall and 100 feet wide at the base. Climbing the mountain requires 8 hours and a successful DC 35 Athletics check. After activating it, if you climb to the top of the mountain without any assistance from flight or magic, the mountain <em>plane shifts</em> you to <em>Heaven</em> when you reach the summit. You can return the mountain to the sky into the shape of a walnut shell as a 1-minute activity, which has the <em>concentrate </em>and <em>manipulate </em>traits, so long as no living creatures are present on the mountain.</p>"
        },
        "equipped": {
            "value": false
        },
        "equippedBulk": {
            "value": ""
        },
        "hardness": {
            "value": 0
        },
        "hp": {
            "value": 0
        },
        "identification": {
            "status": "identified"
        },
        "identified": {
            "value": true
        },
        "invested": {
            "value": false
        },
        "level": {
            "value": "16"
        },
        "maxHp": {
            "value": 0
        },
        "negateBulk": {
            "value": "0"
        },
        "preciousMaterial": {
            "value": ""
        },
        "preciousMaterialGrade": {
            "value": ""
        },
        "price": {
            "value": "10,000 gp"
        },
        "quantity": {
            "value": "1"
        },
        "rarity": {
            "value": "common"
        },
        "rules": [],
        "size": {
            "value": "med"
        },
        "source": {
            "value": ""
        },
        "stackGroup": {
            "value": ""
        },
        "traits": {
            "custom": "",
            "rarity": {
                "value": "unique"
            },
            "usage": {
                "value": "held-in-one-hand"
            },
            "value": [
                "conjuration",
                "magical",
                "structure"
            ]
        },
        "usage": {
            "value": "held-in-one-hand"
        },
        "weight": {
            "value": "-"
        }
    },
    "effects": [],
    "flags": {},
    "img": "systems/pf2e/icons/equipment/structures/mountain-to-the-sky.jpg",
    "name": "Mountain to the Sky",
    "permission": {
        "default": 0
    },
    "type": "equipment"
}
