{
    "_id": "JN2wkB9JG4nklVKP",
    "data": {
        "baseItem": null,
        "brokenThreshold": {
            "value": 0
        },
        "bulkCapacity": {
            "value": ""
        },
        "collapsed": {
            "value": false
        },
        "containerId": {
            "value": ""
        },
        "description": {
            "chat": "",
            "unidentified": "",
            "value": "<p>This greasy stick emits a stomach-churning scent when held in a hand.</p>\n<hr />\n<p><strong>Activate</strong> @Compendium[pf2e.actionspf2e.Cast a Spell]{Cast a Spell};</p>\n<p><strong>Frequency</strong> once per day, plus overcharge;</p>\n<p><strong>Effect</strong> You cast @Compendium[pf2e.spells-srd.Acid Arrow]{Acid Arrow} at 2nd level. A creature that takes acid damage from this spell must succeed at a Fortitude save against your spell DC or become @Compendium[pf2e.conditionitems.Sickened]{Sickened} 1.</p>\n<hr />\n<p><strong>Craft Requirements</strong> Supply a casting of Acid Arrow at 2nd level</p>"
        },
        "equipped": {
            "value": false
        },
        "equippedBulk": {
            "value": ""
        },
        "hardness": {
            "value": 0
        },
        "hp": {
            "value": 0
        },
        "identification": {
            "status": "identified"
        },
        "identified": {
            "value": true
        },
        "invested": {
            "value": false
        },
        "level": {
            "value": "6"
        },
        "maxHp": {
            "value": 0
        },
        "negateBulk": {
            "value": "0"
        },
        "preciousMaterial": {
            "value": ""
        },
        "preciousMaterialGrade": {
            "value": ""
        },
        "price": {
            "value": "250 gp"
        },
        "quantity": {
            "value": "1"
        },
        "rarity": {
            "value": "common"
        },
        "rules": [],
        "size": {
            "value": "med"
        },
        "source": {
            "value": ""
        },
        "stackGroup": {
            "value": ""
        },
        "traits": {
            "custom": "",
            "rarity": {
                "value": "uncommon"
            },
            "usage": {
                "value": "held-in-one-hand"
            },
            "value": [
                "acid",
                "evocation",
                "magical",
                "wand"
            ]
        },
        "usage": {
            "value": "held-in-one-hand"
        },
        "weight": {
            "value": "L"
        }
    },
    "effects": [],
    "flags": {},
    "img": "systems/pf2e/icons/equipment/wands/specialty-wands/wand-of-noisome-acid.jpg",
    "name": "Wand of Noisome Acid (2nd-Level Spell)",
    "permission": {
        "default": 0
    },
    "type": "equipment"
}
