{
    "_id": "h7apR3QSxVZmy2nt",
    "data": {
        "attributes": {
            "ac": {
                "value": 24
            },
            "hardness": 14,
            "hasHealth": true,
            "hp": {
                "details": "",
                "max": 56,
                "temp": 0,
                "tempmax": 0,
                "value": 56
            },
            "stealth": {
                "details": " +0, but DC 24 to notice that the fiery lights within the skull's eye sockets seem to be looking around the room.",
                "value": 0
            }
        },
        "creatureType": "",
        "details": {
            "description": "A pair of magical gems inside the dragon skull's eye sockets act as magical sensors with a 30-foot radius.",
            "disable": "Thievery DC 27 (expert) two times to pry the gems embedded deep in the skull's eye sockets without triggering the sensor, or dispel magic (4th level, counteract DC 22) twice to dispel both eyes.",
            "isComplex": true,
            "level": 6,
            "reset": "",
            "routine": "(2 actions) On its initiative, Dahak's skull fires up to two eye beams; it must target a different creature with each attack. The eye beams can't target creatures directly below the skull."
        },
        "flavourText": "",
        "nethysUrl": "",
        "recallKnowledgeText": "",
        "saves": {
            "fortitude": {
                "rank": 0,
                "saveDetail": "",
                "value": null
            },
            "reflex": {
                "rank": 0,
                "saveDetail": "",
                "value": null
            },
            "will": {
                "rank": 0,
                "saveDetail": "",
                "value": null
            }
        },
        "schema": {
            "version": {
                "value": ""
            }
        },
        "sidebarText": "",
        "source": {
            "value": ""
        },
        "statusEffects": [],
        "traits": {
            "ci": [],
            "di": {
                "custom": "",
                "selected": {},
                "value": [
                    "critical-hits",
                    "fire",
                    "object-immunities",
                    "precision"
                ]
            },
            "dr": [],
            "dv": [],
            "traits": {
                "custom": "Unique",
                "value": [
                    "fire",
                    "magical",
                    "custom"
                ]
            }
        }
    },
    "effects": [],
    "flags": {},
    "img": "systems/pf2e/icons/default-icons/hazard.svg",
    "items": [
        {
            "_id": "EYE5NG1a4JuddG5h",
            "data": {
                "actionCategory": {
                    "value": ""
                },
                "actionType": {
                    "value": "passive"
                },
                "actions": {
                    "value": ""
                },
                "description": {
                    "chat": "",
                    "unidentified": "",
                    "value": "<p>+16 Perception</p>\n<p>Darkvision, @Compendium[pf2e.spells-srd.See Invisibility]{See Invisibility}</p>"
                },
                "rarity": {
                    "value": "common"
                },
                "requirements": {
                    "value": ""
                },
                "rules": [],
                "source": {
                    "value": ""
                },
                "traits": {
                    "custom": "",
                    "rarity": {
                        "value": "common"
                    },
                    "selected": {},
                    "value": []
                },
                "trigger": {
                    "value": ""
                },
                "usage": {
                    "value": "held-in-one-hand"
                },
                "weapon": {
                    "value": ""
                }
            },
            "effects": [],
            "flags": {},
            "img": "systems/pf2e/icons/default-icons/action.svg",
            "name": "Perception and Vision",
            "sort": 100000,
            "type": "action"
        },
        {
            "_id": "K28NAtboAXcpvklg",
            "data": {
                "actionCategory": {
                    "value": ""
                },
                "actionType": {
                    "value": "reaction"
                },
                "actions": {
                    "value": ""
                },
                "description": {
                    "chat": "",
                    "unidentified": "",
                    "value": "<p><strong>Trigger</strong>: A living creature that is not a member of the Cinderclaws enters area <strong>C9</strong>;</p>\n<p><strong>Effect</strong>: One of the dragon skull's eye sockets shoots an eye beam at the triggering creature, then the hazard rolls initiative.</p>"
                },
                "rarity": {
                    "value": "common"
                },
                "requirements": {
                    "value": ""
                },
                "rules": [],
                "source": {
                    "value": ""
                },
                "traits": {
                    "custom": "",
                    "rarity": {
                        "value": "common"
                    },
                    "selected": {
                        "divine": "Divine",
                        "evocation": "Evocation",
                        "fire": "Fire"
                    },
                    "value": [
                        "divine",
                        "evocation",
                        "fire"
                    ]
                },
                "trigger": {
                    "value": ""
                },
                "usage": {
                    "value": "held-in-one-hand"
                },
                "weapon": {
                    "value": ""
                }
            },
            "effects": [],
            "flags": {},
            "img": "systems/pf2e/icons/actions/Reaction.png",
            "name": "Dahak's Glance",
            "sort": 200000,
            "type": "action"
        },
        {
            "_id": "vmOhdTHRiDnoF4LK",
            "data": {
                "attack": {
                    "value": ""
                },
                "attackEffects": {
                    "value": []
                },
                "bonus": {
                    "value": "20"
                },
                "brokenThreshold": {
                    "value": 0
                },
                "bulkCapacity": {
                    "value": ""
                },
                "collapsed": {
                    "value": false
                },
                "containerId": {
                    "value": ""
                },
                "damageRolls": {
                    "7uc8gqbvn5wh8ng5jlm9xq": {
                        "damage": "8d6",
                        "damageType": "fire"
                    }
                },
                "description": {
                    "chat": "",
                    "unidentified": "",
                    "value": ""
                },
                "equipped": {
                    "value": false
                },
                "equippedBulk": {
                    "value": ""
                },
                "hardness": {
                    "value": 0
                },
                "hp": {
                    "value": 0
                },
                "identification": {
                    "status": "identified"
                },
                "identified": {
                    "value": false
                },
                "invested": {
                    "value": false
                },
                "maxHp": {
                    "value": 0
                },
                "negateBulk": {
                    "value": "0"
                },
                "preciousMaterial": {
                    "value": ""
                },
                "preciousMaterialGrade": {
                    "value": ""
                },
                "price": {
                    "value": 0
                },
                "property1": {
                    "critDamage": "",
                    "critDamageType": "",
                    "critDice": 0,
                    "critDie": "",
                    "damageType": "",
                    "dice": 0,
                    "die": "",
                    "value": ""
                },
                "property2": {
                    "critDamage": "",
                    "critDamageType": "",
                    "critDice": 0,
                    "critDie": "",
                    "damageType": "",
                    "dice": 0,
                    "die": "",
                    "value": ""
                },
                "property3": {
                    "critDamage": "",
                    "critDamageType": "",
                    "critDice": 0,
                    "critDie": "",
                    "damageType": "",
                    "dice": 0,
                    "die": "",
                    "value": ""
                },
                "quantity": {
                    "value": 1
                },
                "rarity": {
                    "value": "common"
                },
                "rules": [],
                "size": {
                    "value": "med"
                },
                "source": {
                    "value": ""
                },
                "stackGroup": {
                    "value": ""
                },
                "traits": {
                    "custom": "Divine, Range 150 feet",
                    "rarity": {
                        "value": "common"
                    },
                    "selected": {
                        "custom": "Divine, Range 150 feet",
                        "evocation": "Evocation",
                        "fire": "Fire"
                    },
                    "value": [
                        "evocation",
                        "fire",
                        "custom"
                    ]
                },
                "usage": {
                    "value": "held-in-one-hand"
                },
                "weaponType": {
                    "value": "ranged"
                },
                "weight": {
                    "value": 0
                }
            },
            "effects": [],
            "flags": {},
            "img": "systems/pf2e/icons/default-icons/melee.svg",
            "name": "Eye Beam",
            "sort": 300000,
            "type": "melee"
        }
    ],
    "name": "Dahak's Skull",
    "permission": {
        "default": 0
    },
    "token": {
        "actorData": {},
        "actorId": "h7apR3QSxVZmy2nt",
        "actorLink": false,
        "bar1": {
            "attribute": "attributes.hp"
        },
        "bar2": {},
        "brightLight": 0,
        "brightSight": 0,
        "dimLight": 0,
        "dimSight": 0,
        "displayBars": 20,
        "displayName": 20,
        "disposition": -1,
        "flags": {},
        "height": 1,
        "img": "systems/pf2e/icons/default-icons/hazard.svg",
        "lightAlpha": 1,
        "lightAngle": 360,
        "lockRotation": false,
        "name": "Dahak's Skull",
        "randomImg": false,
        "rotation": 0,
        "scale": 1,
        "sightAngle": 360,
        "tint": null,
        "vision": false,
        "width": 1
    },
    "type": "hazard"
}
