{
    "_id": "ewwCglB7XOPLUz72",
    "data": {
        "actionCategory": {
            "value": ""
        },
        "actionType": {
            "label": "Action Type",
            "type": "String",
            "value": "passive"
        },
        "actions": {
            "label": "Number of Actions",
            "type": "String",
            "value": ""
        },
        "description": {
            "chat": "",
            "label": "Description",
            "type": "String",
            "unidentified": "",
            "value": "<p>You try to fool someone with an untruth. Doing so takes at least 1 round, or longer if the lie is elaborate. You roll a single <span data-pf2-action=\"lie\">Deception</span> check and compare it against the Perception DC of every creature you are trying to fool. The GM might give them a circumstance bonus based on the situation and the nature of the lie you are trying to tell. Elaborate or highly unbelievable lies are much harder to get a creature to believe than simpler and more believable lies, and some lies are so big that it's impossible to get anyone to believe them.<br /><br />At the GM's discretion, if a creature initially believes your lie, it might attempt a Perception check later to @Compendium[pf2e.actionspf2e.Sense Motive]{Sense Motive} against your Deception DC to realize it's a lie. This usually happens if the creature discovers enough evidence to counter your statements.</p>\n<hr />\n<p><strong>Success</strong> The target believes your lie.</p>\n<p><strong>Failure</strong> The target doesn't believe your lie and gains a +4 circumstance bonus against your attempts to Lie for the duration of your conversation. The target is also more likely to be suspicious of you in the future.</p>"
        },
        "rarity": {
            "value": "common"
        },
        "requirements": {
            "label": "Requirements",
            "type": "String",
            "value": ""
        },
        "rules": [],
        "source": {
            "label": "Source",
            "type": "String",
            "value": ""
        },
        "traits": {
            "custom": "Linguistic",
            "label": "Traits",
            "rarity": {
                "value": "common"
            },
            "type": "String",
            "value": [
                "concentrate",
                "skill",
                "secret",
                "auditory",
                "mental",
                "custom"
            ]
        },
        "trigger": {
            "label": "Trigger",
            "type": "String",
            "value": ""
        },
        "weapon": {
            "label": "Associated Weapon",
            "type": "String",
            "value": ""
        }
    },
    "effects": [],
    "flags": {},
    "img": "icons/svg/mystery-man.svg",
    "name": "Lie",
    "permission": {
        "default": 0
    },
    "type": "action"
}
