{
    "_id": "AMhUb42NAJ1aisZp",
    "data": {
        "description": {
            "chat": "",
            "unidentified": "",
            "value": "<p>Granted by @Compendium[pf2e.equipment-srd.Stone Fist Elixir]{Stone Fist Elixir}</p>\n<hr />\n<p>Automatically applied effects:</p>\n<ul>\n<li>Your fists deal 1d6 bludgeoning damage and lose the nonlethal trait.</li>\n</ul>\n<p>&nbsp;</p>"
        },
        "duration": {
            "expiry": "turn-start",
            "sustained": false,
            "unit": "hours",
            "value": 1
        },
        "level": {
            "value": 4
        },
        "rarity": {
            "value": "common"
        },
        "rules": [
            {
                "category": "unarmed",
                "damage": {
                    "base": {
                        "damageType": "bludgeoning",
                        "dice": 1,
                        "die": "d6"
                    }
                },
                "group": "brawling",
                "key": "PF2E.RuleElement.Strike",
                "label": "Stone Fist Elixir",
                "range": "melee",
                "traits": [
                    "agile",
                    "finesse",
                    "unarmed"
                ]
            },
            {
                "key": "PF2E.RuleElement.TokenEffectIcon"
            }
        ],
        "source": {
            "value": ""
        },
        "start": {
            "initiative": null,
            "value": 0
        },
        "traits": {
            "custom": "",
            "rarity": {
                "value": "common"
            },
            "value": []
        }
    },
    "effects": [],
    "flags": {},
    "img": "systems/pf2e/icons/equipment/alchemical-items/alchemical-elixirs/stone-fist-elixir.jpg",
    "name": "Effect: Stone Fist Elixir",
    "permission": {
        "default": 0
    },
    "type": "effect"
}
