{
    "_id": "jaBMZKdoywOTrQvP",
    "data": {
        "description": {
            "chat": "",
            "unidentified": "",
            "value": "<p>Granted by @Compendium[pf2e.equipment-srd.Cognitive Mutagen (Lesser)]{Cognitive Mutagen (Lesser)}</p>\n<p><strong>Implemented effects:</strong></p>\n<ul>\n<li>+1 item bonus to Arcana, Crafting, Occultism and Society checks</li>\n<li>+1 item bonus to all Recall Knowledge checks</li>\n<li>-2 penalty to to Athletics and Acrobatics checks</li>\n<li>-2 penalty to weapon and unarmed attacks</li>\n</ul>\n<p><strong>Unimplemented effects:</strong></p>\n<ul>\n<li>+1 item bonus to Lore checks</li>\n<li>Treat Recall Knowledge critical failures as failures</li>\n<li>You can carry 2 less Bulk than normal before becoming encumbered</li>\n<li>The maximum Bulk you can carry is reduced by 4</li>\n</ul>"
        },
        "duration": {
            "expiry": "turn-start",
            "sustained": false,
            "unit": "minutes",
            "value": 1
        },
        "level": {
            "value": 1
        },
        "rarity": {
            "value": "common"
        },
        "rules": [
            {
                "key": "PF2E.RuleElement.FlatModifier",
                "label": "Cognitive Mutagen (Lesser)",
                "selector": "arcana",
                "type": "item",
                "value": 1
            },
            {
                "key": "PF2E.RuleElement.FlatModifier",
                "label": "Cognitive Mutagen (Lesser)",
                "selector": "crafting",
                "type": "item",
                "value": 1
            },
            {
                "key": "PF2E.RuleElement.FlatModifier",
                "label": "Cognitive Mutagen (Lesser)",
                "selector": "occultism",
                "type": "item",
                "value": 1
            },
            {
                "key": "PF2E.RuleElement.FlatModifier",
                "label": "Cognitive Mutagen (Lesser)",
                "selector": "society",
                "type": "item",
                "value": 1
            },
            {
                "key": "PF2E.RuleElement.FlatModifier",
                "label": "Cognitive Mutagen (Lesser)",
                "selector": "athletics",
                "type": "untyped",
                "value": -2
            },
            {
                "key": "PF2E.RuleElement.FlatModifier",
                "label": "Cognitive Mutagen (Lesser)",
                "selector": "acrobatics",
                "type": "untyped",
                "value": -2
            },
            {
                "key": "PF2E.RuleElement.FlatModifier",
                "label": "Cognitive Mutagen, Lesser (Weapon and unarmed attacks)",
                "predicate": {
                    "all": [
                        "weapon, unarmed"
                    ]
                },
                "selector": "attack",
                "type": "untyped",
                "value": -2
            },
            {
                "key": "PF2E.RuleElement.TokenEffectIcon"
            },
            {
                "key": "PF2E.RuleElement.FlatModifier",
                "label": "Cognitive Mutagen (Recall knowledge)",
                "predicate": {
                    "all": [
                        "recall-knowledge"
                    ]
                },
                "selector": "skill-check",
                "type": "item",
                "value": 1
            }
        ],
        "source": {
            "value": ""
        },
        "start": {
            "initiative": null,
            "value": 0
        },
        "traits": {
            "custom": "",
            "rarity": {
                "value": "common"
            },
            "value": []
        }
    },
    "effects": [],
    "flags": {},
    "img": "systems/pf2e/icons/equipment/alchemical-items/alchemical-elixirs/cognitive-mutagen.jpg",
    "name": "Effect: Cognitive Mutagen (Lesser)",
    "permission": {
        "default": 0
    },
    "type": "effect"
}
