{
    "_id": "bEh5qUgX5eFaQwzU",
    "data": {
        "actionCategory": {
            "value": ""
        },
        "actionType": {
            "value": "passive"
        },
        "actions": {
            "value": ""
        },
        "description": {
            "chat": "",
            "unidentified": "",
            "value": "<p>You favor weapons that you can use with quick, darting slashes like a cat's claws. You are trained with the @Compendium[pf2e.equipment-srd.Hatchet]{Hatchet}, @Compendium[pf2e.equipment-srd.Kama]{Kama}, @Compendium[pf2e.equipment-srd.Kukri]{Kukri}, @Compendium[pf2e.equipment-srd.Scimitar]{Scimitar}, and @Compendium[pf2e.equipment-srd.Sickle]{Sickle}. In addition, you gain access to kama, kukris, and all uncommon catfolk weapons. For you, martial catfolk weapons are simple weapons and advanced catfolk weapons are martial weapons.</p>"
        },
        "featType": {
            "value": "ancestry"
        },
        "level": {
            "value": "1"
        },
        "prerequisites": {
            "value": [
                ""
            ]
        },
        "rarity": {
            "value": "common"
        },
        "rules": [],
        "source": {
            "value": ""
        },
        "traits": {
            "custom": "",
            "rarity": {
                "value": "common"
            },
            "value": [
                "catfolk"
            ]
        }
    },
    "effects": [],
    "flags": {},
    "img": "systems/pf2e/icons/features/feats/feats.jpg",
    "name": "Catfolk Weapon Familiarity",
    "permission": {
        "default": 0
    },
    "type": "feat"
}
