{
    "_id": "yExxOkHN1PN37hUa",
    "data": {
        "actionCategory": {
            "value": ""
        },
        "actionType": {
            "value": "passive"
        },
        "actions": {
            "value": ""
        },
        "description": {
            "chat": "",
            "unidentified": "",
            "value": "<p>You're a conduit for positive energy, and as you channel it through you, it heals some of your minor injuries.</p>\n<p>When you cast the @Compendium[pf2e.spells-srd.Heal]{Heal} spell to heal a single creature other than yourself, you regain Hit Points equal to the spell level of the heal spell.</p>"
        },
        "featType": {
            "value": "class"
        },
        "level": {
            "value": 2
        },
        "location": "",
        "prerequisites": [],
        "rarity": {
            "value": "common"
        },
        "rules": [],
        "source": {
            "value": ""
        },
        "traits": {
            "custom": "",
            "rarity": {
                "value": "common"
            },
            "value": [
                "cleric",
                "healing",
                "positive"
            ]
        }
    },
    "effects": [],
    "flags": {},
    "img": "systems/pf2e/icons/features/feats/feats.jpg",
    "name": "Communal Healing",
    "permission": {
        "default": 0
    },
    "type": "feat"
}
