{
    "_id": "ulrGnvF0KAgEaifX",
    "data": {
        "actionCategory": {
            "value": ""
        },
        "actionType": {
            "value": "passive"
        },
        "actions": {
            "value": ""
        },
        "description": {
            "chat": "",
            "unidentified": "",
            "value": "<p>When physically outmatched, you fight with unexpected ferocity. If a foe of a larger size than you critically hits and damages you, that foe is @Compendium[pf2e.conditionitems.Flat-Footed]{Flat-Footed} to you for 1 round.</p>"
        },
        "featType": {
            "value": "ancestry"
        },
        "level": {
            "value": 5
        },
        "location": "",
        "prerequisites": [],
        "rarity": {
            "value": "common"
        },
        "rules": [],
        "source": {
            "value": ""
        },
        "traits": {
            "custom": "",
            "rarity": {
                "value": "common"
            },
            "value": [
                "ratfolk"
            ]
        },
        "usage": {
            "value": ""
        }
    },
    "effects": [],
    "flags": {},
    "img": "systems/pf2e/icons/features/feats/feats.jpg",
    "name": "Cornered Fury",
    "permission": {
        "default": 0
    },
    "type": "feat"
}
