{
    "_id": "gSc4ZUXkesN5vKrm",
    "data": {
        "actionCategory": {
            "value": ""
        },
        "actionType": {
            "value": "action"
        },
        "actions": {
            "value": "2"
        },
        "description": {
            "chat": "",
            "unidentified": "",
            "value": "<p>Aiming for a weak point, you impede your foe with a precise shot.</p>\n<p>Make a ranged weapon Strike. If it hits and deals damage, the target is @Compendium[pf2e.conditionitems.Slowed]{Slowed 1} until the end of its next turn.</p>"
        },
        "featType": {
            "value": "class"
        },
        "level": {
            "value": 10
        },
        "location": "",
        "prerequisites": [],
        "rarity": {
            "value": "common"
        },
        "rules": [],
        "source": {
            "value": ""
        },
        "traits": {
            "custom": "",
            "rarity": {
                "value": "common"
            },
            "value": [
                "fighter",
                "flourish"
            ]
        }
    },
    "effects": [],
    "flags": {},
    "img": "systems/pf2e/icons/features/feats/feats.jpg",
    "name": "Debilitating Shot",
    "permission": {
        "default": 0
    },
    "type": "feat"
}
