{
    "_id": "p0jZhb8PSswUsZaz",
    "data": {
        "actionCategory": {
            "value": ""
        },
        "actionType": {
            "value": "passive"
        },
        "actions": {
            "value": ""
        },
        "description": {
            "chat": "",
            "unidentified": "",
            "value": "<p>You can take on the form of some of the world's most fearsome creatures.</p>\n<p>Add the forms listed in @Compendium[pf2e.spells-srd.Dragon Form]{Dragon Form} to your <em>wild shape</em> list.</p>\n<p>Whenever you're polymorphed into another form using <em>wild shape</em>, you gain resistance 5 to your choice of acid, cold, electricity, fire, or poison.</p>"
        },
        "featType": {
            "value": "class"
        },
        "level": {
            "value": 12
        },
        "location": "",
        "prerequisites": [
            "Soaring Shape"
        ],
        "rarity": {
            "value": "common"
        },
        "rules": [],
        "source": {
            "value": ""
        },
        "traits": {
            "custom": "",
            "rarity": {
                "value": "common"
            },
            "value": [
                "druid"
            ]
        }
    },
    "effects": [],
    "flags": {},
    "img": "systems/pf2e/icons/features/feats/feats.jpg",
    "name": "Dragon Shape",
    "permission": {
        "default": 0
    },
    "type": "feat"
}
