{
    "_id": "OWL6ZNVWMU0AFqvZ",
    "data": {
        "actionCategory": {
            "value": ""
        },
        "actionType": {
            "value": "passive"
        },
        "actions": {
            "value": ""
        },
        "description": {
            "chat": "",
            "unidentified": "",
            "value": "<p>Your wings are now a permanent part of your body. You gain the effects of Celestial Wings at all times, rather than just once per day for 10 minutes.</p>"
        },
        "featType": {
            "value": "ancestry"
        },
        "level": {
            "value": "17"
        },
        "prerequisites": {
            "value": [
                "Celestial Wings"
            ]
        },
        "rarity": {
            "value": "common"
        },
        "rules": [],
        "source": {
            "value": ""
        },
        "traits": {
            "custom": "",
            "rarity": {
                "value": "common"
            },
            "value": [
                "aasimar"
            ]
        }
    },
    "effects": [],
    "flags": {},
    "img": "systems/pf2e/icons/features/feats/feats.jpg",
    "name": "Eternal Wings (Aasimar)",
    "permission": {
        "default": 0
    },
    "type": "feat"
}
