{
    "_id": "jwQERVkjtnlFp3Ec",
    "data": {
        "actionCategory": {
            "value": ""
        },
        "actionType": {
            "value": "passive"
        },
        "actions": {
            "value": ""
        },
        "description": {
            "chat": "",
            "unidentified": "",
            "value": "<p>Divine power is always at your fingertips, swiftly responding to your call.</p>\n<p>When you cast @Compendium[pf2e.spells-srd.Harm]{Harm} or @Compendium[pf2e.spells-srd.Heal]{Heal} by spending 2 actions, you can get the effects of the 3-action version instead of the 2-action version. You can do this with <em>harm</em> if you have harmful font or <em>heal</em> if you have healing font (or both if you have Versatile Font).</p>"
        },
        "featType": {
            "value": "class"
        },
        "level": {
            "value": 14
        },
        "location": "",
        "prerequisites": [
            "harmful font or healing font"
        ],
        "rarity": {
            "value": "common"
        },
        "rules": [],
        "source": {
            "value": ""
        },
        "traits": {
            "custom": "",
            "rarity": {
                "value": "common"
            },
            "value": [
                "cleric"
            ]
        }
    },
    "effects": [],
    "flags": {},
    "img": "systems/pf2e/icons/features/feats/feats.jpg",
    "name": "Fast Channel",
    "permission": {
        "default": 0
    },
    "type": "feat"
}
