{
    "_id": "fO1vRDEfl9pysfLU",
    "data": {
        "actionCategory": {
            "value": ""
        },
        "actionType": {
            "value": "passive"
        },
        "actions": {
            "value": ""
        },
        "description": {
            "chat": "",
            "unidentified": "",
            "value": "<p>Your guard is up, even while moving. You gain a +4 circumstance bonus to AC against reactions triggered by your movement.</p>"
        },
        "featType": {
            "value": "class"
        },
        "level": {
            "value": 4
        },
        "prerequisites": [],
        "rarity": {
            "value": "common"
        },
        "rules": [],
        "source": {
            "value": ""
        },
        "traits": {
            "custom": "",
            "rarity": {
                "value": "common"
            },
            "value": [
                "monk"
            ]
        }
    },
    "effects": [],
    "flags": {},
    "img": "systems/pf2e/icons/features/feats/feats.jpg",
    "name": "Guarded Movement",
    "permission": {
        "default": 0
    },
    "type": "feat"
}
