{
    "_id": "2ebcYbg68pCZfAFQ",
    "data": {
        "actionCategory": {
            "value": ""
        },
        "actionType": {
            "value": "passive"
        },
        "actions": {
            "value": ""
        },
        "description": {
            "chat": "",
            "unidentified": "",
            "value": "<p>You favor traditional halfling weapons, so you've learned how to use them more effectively. You have the trained proficiency with the sling, halfling sling staff, and shortsword. In addition, you gain access to all uncommon halfling weapons. For you, martial halfling weapons are simple weapons, and advanced halfling weapons are martial weapons.</p>"
        },
        "featType": {
            "value": "ancestry"
        },
        "level": {
            "value": 1
        },
        "prerequisites": [],
        "rarity": {
            "value": "common"
        },
        "rules": [],
        "source": {
            "value": ""
        },
        "traits": {
            "custom": "",
            "rarity": {
                "value": "common"
            },
            "value": [
                "halfling"
            ]
        }
    },
    "effects": [],
    "flags": {},
    "img": "systems/pf2e/icons/features/feats/feats.jpg",
    "name": "Halfling Weapon Familiarity",
    "permission": {
        "default": 0
    },
    "type": "feat"
}
