{
    "_id": "BiPQAcvaEO0P2snr",
    "data": {
        "actionCategory": {
            "value": ""
        },
        "actionType": {
            "value": "reaction"
        },
        "actions": {
            "value": ""
        },
        "description": {
            "value": "<p><strong>Trigger</strong> You or allies within 30 feet recover Hit Points while your halo is active.</p>\n<hr />\n<p>Your halo can enhance positive energy. Creatures who have recovered Hit Points from a positive healing effect recover an additional [[/r 1d6]] Hit Points. Creatures who benefit from this power become temporarily immune to its effect for the next 10 minutes.</p>"
        },
        "featType": {
            "value": "ancestry"
        },
        "level": {
            "value": 5
        },
        "location": "",
        "prerequisites": [
            "Halo"
        ],
        "rarity": {
            "value": "common"
        },
        "rules": [],
        "source": {
            "value": ""
        },
        "traits": {
            "custom": "",
            "rarity": {
                "value": "common"
            },
            "value": [
                "aasimar"
            ]
        }
    },
    "effects": [],
    "flags": {},
    "img": "systems/pf2e/icons/features/feats/feats.jpg",
    "name": "Healer's Halo",
    "permission": {
        "default": 0
    },
    "type": "feat"
}
