{
    "_id": "vxE9hBKB6F2ctOX3",
    "data": {
        "actionCategory": {
            "value": ""
        },
        "actionType": {
            "value": "reaction"
        },
        "actions": {
            "value": ""
        },
        "description": {
            "chat": "",
            "unidentified": "",
            "value": "<p><strong>Frequency</strong> once per day</p>\n<p><strong>Trigger</strong> You fail a saving throw against an effect from your <em>warmask</em>’s magical tradition.</p>\n<p><strong>Requirements</strong> You’re wearing your <em>warmask</em>.</p>\n<hr />\n<p>Your <em>warmask</em> projects a white-hot fury that attempts to vaporize the offending magic. You reroll the triggering check with a +2 circumstance bonus, but you must use the new result, even if it’s worse than your first roll.</p>"
        },
        "featType": {
            "value": "ancestry"
        },
        "level": {
            "value": 5
        },
        "location": "",
        "prerequisites": [
            "Orc Warmask"
        ],
        "rarity": {
            "value": "common"
        },
        "rules": [],
        "source": {
            "value": ""
        },
        "traits": {
            "custom": "",
            "rarity": {
                "value": "common"
            },
            "value": [
                "fortune",
                "orc"
            ]
        },
        "usage": {
            "value": ""
        }
    },
    "effects": [],
    "flags": {},
    "img": "systems/pf2e/icons/features/feats/feats.jpg",
    "name": "Mask Of Rejection",
    "permission": {
        "default": 0
    },
    "type": "feat"
}
