{
    "_id": "kh4bTBgi3C9CjwHK",
    "data": {
        "actionCategory": {
            "value": ""
        },
        "actionType": {
            "value": "action"
        },
        "actions": {
            "value": "1"
        },
        "description": {
            "chat": "",
            "unidentified": "",
            "value": "<p>You subtly weave your spellcasting into your performance. If the next action you take is to Cast a Spell, attempt a Performance check against all observers' Perception DCs. If your Performance check is successful against an observer's Perception DC, that observer doesn't notice that you are Casting a Spell, even though normally spells have sensory manifestations that would make spellcasting obvious to those around you, and verbal, somatic, and material components are extremely overt. You hide all of these as part of an ordinary performance. This hides only the spell's spellcasting actions and manifestations, not its effects, so an observer might still see a ray streak out from you or see you vanish.</p>"
        },
        "featType": {
            "value": "class"
        },
        "level": {
            "value": 4
        },
        "prerequisites": [],
        "rarity": {
            "value": "common"
        },
        "rules": [],
        "source": {
            "value": ""
        },
        "traits": {
            "custom": "",
            "rarity": {
                "value": "common"
            },
            "value": [
                "bard",
                "concentrate",
                "manipulate",
                "metamagic"
            ]
        }
    },
    "effects": [],
    "flags": {},
    "img": "systems/pf2e/icons/features/feats/feats.jpg",
    "name": "Melodious Spell",
    "permission": {
        "default": 0
    },
    "type": "feat"
}
