{
    "_id": "54JzsYCx3uoj7Wlz",
    "data": {
        "actionCategory": {
            "value": ""
        },
        "actionType": {
            "value": "passive"
        },
        "actions": {
            "value": ""
        },
        "description": {
            "chat": "",
            "unidentified": "",
            "value": "<p>You can transform into a powerful magical creature. Add the purple worm and sea serpent forms listed in monstrosity form to your wild shape list. If you have Soaring Shape, add the phoenix form listed in aerial form to your wild shape list.</p>"
        },
        "featType": {
            "value": "class"
        },
        "level": {
            "value": 16
        },
        "prerequisites": [
            "Wild Shape"
        ],
        "rarity": {
            "value": "common"
        },
        "rules": [],
        "source": {
            "value": ""
        },
        "traits": {
            "custom": "",
            "rarity": {
                "value": "common"
            },
            "value": [
                "druid"
            ]
        }
    },
    "effects": [],
    "flags": {},
    "img": "systems/pf2e/icons/features/feats/feats.jpg",
    "name": "Monstrosity Shape",
    "permission": {
        "default": 0
    },
    "type": "feat"
}
