{
    "_id": "wqhxZwB1TR8fvpHP",
    "data": {
        "actionCategory": {
            "value": ""
        },
        "actionType": {
            "value": "passive"
        },
        "actions": {
            "value": ""
        },
        "description": {
            "chat": "",
            "unidentified": "",
            "value": "<p>You attend all the fashionable society parties, no matter how exclusive they might be.</p>\n<p>Any time you encounter a social event you would ordinarily be denied access to, such as a coronation, royal gala, or other society function, you can spend [[/r 1d4]] hours to secure entry without the need for a skill check. You find invitations, invitees looking for fashionable dates, temporary jobs with the caterers, event staff willing to look the other way, or some other mode of access for yourself and your allies.</p>\n<p>This ability doesn't apply to secret events or other small private gatherings with no staff, dates, or outsiders involved.</p>"
        },
        "featType": {
            "value": "archetype"
        },
        "level": {
            "value": 7
        },
        "prerequisites": [
            "Dandy Dedication",
            "master in Society"
        ],
        "rarity": {
            "value": "common"
        },
        "rules": [],
        "source": {
            "value": ""
        },
        "traits": {
            "custom": "",
            "rarity": {
                "value": "common"
            },
            "value": [
                "archetype",
                "skill"
            ]
        }
    },
    "effects": [],
    "flags": {},
    "img": "systems/pf2e/icons/features/feats/feats.jpg",
    "name": "Party Crasher",
    "permission": {
        "default": 0
    },
    "type": "feat"
}
