{
    "_id": "4BbfHsGPRHPHfIGY",
    "data": {
        "actionCategory": {
            "value": ""
        },
        "actionType": {
            "value": "passive"
        },
        "actions": {
            "value": ""
        },
        "description": {
            "chat": "",
            "unidentified": "",
            "value": "<p>When you create an herbal elixir, you can prepare it as a poultice instead. A poultice gains the oil trait (but remains alchemical, not magical) and loses the elixir and ingested traits. You can apply a poultice by @Compendium[pf2e.actionspf2e.Interact]{Interacting} with one hand.</p>\n<p>When you apply a poultice, in addition to the item's normal effects, the recipient can attempt an immediate flat check to recover from a single source of persistent acid, bleed, or fire damage, with the DC reduction from appropriate assistance.</p>"
        },
        "featType": {
            "value": "archetype"
        },
        "level": {
            "value": "4"
        },
        "prerequisites": {
            "value": [
                "Herbalist Dedication"
            ]
        },
        "rarity": {
            "value": "common"
        },
        "rules": [],
        "source": {
            "value": ""
        },
        "traits": {
            "custom": "",
            "rarity": {
                "value": "common"
            },
            "value": [
                "archetype"
            ]
        }
    },
    "effects": [],
    "flags": {},
    "img": "systems/pf2e/icons/features/feats/feats.jpg",
    "name": "Poultice Preparation",
    "permission": {
        "default": 0
    },
    "type": "feat"
}
