{
    "_id": "CCY6VsGjp5fdmM6K",
    "data": {
        "actionCategory": {
            "value": ""
        },
        "actionType": {
            "value": "reaction"
        },
        "actions": {
            "value": ""
        },
        "description": {
            "chat": "",
            "unidentified": "",
            "value": "<p><strong>Trigger</strong> An ally within 30 feet brings a foe to 0 Hit Points.<br /></p>\n<hr />\n<p>With a shout of triumph, you grant inspiration to an ally fight on. The triggering ally gains temporary Hit Points equal to their Constitution modifier until the end of their next turn.</p>"
        },
        "featType": {
            "value": "ancestry"
        },
        "level": {
            "value": "9"
        },
        "prerequisites": {
            "value": [
                ""
            ]
        },
        "rarity": {
            "value": "common"
        },
        "rules": [],
        "source": {
            "value": ""
        },
        "traits": {
            "custom": "",
            "rarity": {
                "value": "common"
            },
            "value": [
                "hobgoblin"
            ]
        }
    },
    "effects": [],
    "flags": {},
    "img": "systems/pf2e/icons/features/feats/feats.jpg",
    "name": "Pride in Arms",
    "permission": {
        "default": 0
    },
    "type": "feat"
}
