{
    "_id": "Yec6UwJf5FLvAbZ4",
    "data": {
        "actionCategory": {
            "value": ""
        },
        "actionType": {
            "value": "reaction"
        },
        "actions": {
            "value": ""
        },
        "description": {
            "chat": "",
            "unidentified": "",
            "value": "<p><strong>Trigger</strong> An opponent casts a spell and you critically succeed at a saving throw against it.</p>\n<p><strong>Requirements</strong> You have a shield raised or are benefiting from Dueling Parry or Twin Parry.</p>\n<hr />\n<section class=\"content\">\n<p>You attempt to counteract the triggering spell using powerful magical techniques <a class=\"btn-inform2\" tabindex=\"0\" title=\"\" role=\"button\" data-trigger=\"focus\" data-toggle=\"popover\" data-boundary=\"window\" data-placement=\"auto\" data-html=\"true\" data-content=\"<p>Anything in plain view is <em>observed</em> by you. If a creature takes measures to avoid detection, such as by using Stealth to Hide, it can become hidden or undetected instead of <em>observed</em>. If you have another precise sense instead of or in addition to sight, you might be able to observe a creature or object using that sense instead. You can observe a creature only with precise senses. When Seeking a creature using only imprecise senses, it remains hidden, rather than <em>observed</em>.</p>\" data-original-title=\"<strong>condition: observed</strong>\">observed</a> in the Kortos Mounts. Use your attack roll modifier with your shield or parrying weapon for your counteract check. If you counteract the spell, it is reflected upon the caster. If the spell targeted individual creatures, it targets the caster only. If the spell targeted an area centered on a point, the new area is centered on the caster. If the spell was a cone or line, the cone or line emanates from you toward the caster. If the spell has a save DC, it uses your class DC, and if it requires a spell attack roll, use the same attack roll modifier as the counteract check.</p></section>"
        },
        "featType": {
            "value": "class"
        },
        "level": {
            "value": 20
        },
        "location": "",
        "prerequisites": [
            "Dueling Riposte, Mirror Shield, or Twin Riposte"
        ],
        "rarity": {
            "value": "common"
        },
        "rules": [],
        "source": {
            "value": ""
        },
        "traits": {
            "custom": "",
            "rarity": {
                "value": "uncommon"
            },
            "selected": {
                "fighter": "Fighter"
            },
            "value": [
                "fighter"
            ]
        }
    },
    "effects": [],
    "flags": {},
    "img": "systems/pf2e/icons/features/feats/feats.jpg",
    "name": "Reflecting Riposte",
    "permission": {
        "default": 0
    },
    "type": "feat"
}
