{
    "_id": "z5fUX9jeqfAViOd8",
    "data": {
        "actionCategory": {
            "value": ""
        },
        "actionType": {
            "value": "free"
        },
        "actions": {
            "value": ""
        },
        "description": {
            "chat": "",
            "unidentified": "",
            "value": "<p><strong>Requirements</strong> Your last action was a successful @Compendium[pf2e.actionspf2e.Shove]{Shove}.</p>\n<hr />\n<p>You leverage your weight to topple foes that you move. You attempt to @Compendium[pf2e.actionspf2e.Trip]{Trip} the target, even if the target is no longer in your reach.</p>"
        },
        "featType": {
            "value": "class"
        },
        "level": {
            "value": "6"
        },
        "prerequisites": {
            "value": [
                "trained in Athletics"
            ]
        },
        "rarity": {
            "value": "common"
        },
        "rules": [],
        "source": {
            "value": ""
        },
        "traits": {
            "custom": "",
            "rarity": {
                "value": "common"
            },
            "value": [
                "rogue"
            ]
        }
    },
    "effects": [],
    "flags": {},
    "img": "systems/pf2e/icons/features/feats/feats.jpg",
    "name": "Shove Down",
    "permission": {
        "default": 0
    },
    "type": "feat"
}
