{
    "_id": "nqDhQdkgsnvebUMr",
    "data": {
        "actionCategory": {
            "value": ""
        },
        "actionType": {
            "value": "reaction"
        },
        "actions": {
            "value": ""
        },
        "description": {
            "chat": "",
            "unidentified": "",
            "value": "<p><strong>Trigger</strong> A creature fails or critically fails a save against your snare.</p>\n<hr />\n<p>Your snares are so befuddling that your victims rarely notice you slipping out of sight. If you have expert proficiency in Deception, you can Create a Diversion against the triggering creature. If you have expert proficiency in Intimidation, you can instead Demoralize the triggering creature. If you have both, choose one of the two effects.</p>"
        },
        "featType": {
            "value": "ancestry"
        },
        "level": {
            "value": 9
        },
        "location": "",
        "prerequisites": [
            "expert in Deception or Intimidation",
            "Snare Crafting"
        ],
        "rarity": {
            "value": "common"
        },
        "rules": [],
        "source": {
            "value": ""
        },
        "traits": {
            "custom": "",
            "rarity": {
                "value": "common"
            },
            "value": [
                "kobold"
            ]
        },
        "usage": {
            "value": ""
        }
    },
    "effects": [],
    "flags": {},
    "img": "systems/pf2e/icons/features/feats/feats.jpg",
    "name": "Snare Commando",
    "permission": {
        "default": 0
    },
    "type": "feat"
}
