{
    "_id": "CCmiEmS7ZgyQUfhn",
    "data": {
        "actionCategory": {
            "value": ""
        },
        "actionType": {
            "value": "reaction"
        },
        "actions": {
            "value": ""
        },
        "description": {
            "chat": "",
            "unidentified": "",
            "value": "<p><strong>Trigger</strong> You critically fail a Deception, Diplomacy, or Intimidation check against a creature that doesn't have the tengu trait.</p>\n<hr />\n<p>You let out an awkward squawk, ruffle your feathers, or fake some other birdlike tic to cover up a social misstep or faux pas. You get a failure on the triggering check, rather than a critical failure. All creatures that witnessed you Squawk are temporarily immune for 24 hours.</p>"
        },
        "featType": {
            "value": "ancestry"
        },
        "level": {
            "value": "1"
        },
        "prerequisites": {
            "value": [
                ""
            ]
        },
        "rarity": {
            "value": "common"
        },
        "rules": [],
        "source": {
            "value": ""
        },
        "traits": {
            "custom": "",
            "rarity": {
                "value": "common"
            },
            "value": [
                "tengu"
            ]
        }
    },
    "effects": [],
    "flags": {},
    "img": "systems/pf2e/icons/features/feats/feats.jpg",
    "name": "Squawk!",
    "permission": {
        "default": 0
    },
    "type": "feat"
}
