{
    "_id": "bPPcPUZMlJ7m5lYq",
    "data": {
        "actionCategory": {
            "value": ""
        },
        "actionType": {
            "value": "action"
        },
        "actions": {
            "value": "2"
        },
        "description": {
            "chat": "",
            "unidentified": "",
            "value": "<p><strong>Frequency</strong> once per day</p>\n<hr />\n<p>You conjure the force of the tides to gain a +4 circumstance bonus to AC until the end of your next turn. Any allies adjacent to you during the duration gain a +2 circumstance bonus to AC as long as they remain adjacent to you. You can Sustain the effect to a maximum duration of 5 rounds. When a creature receiving a circumstance bonus to AC from Tidal Shield would take damage from an attack, as a reaction, you can reduce the damage to that creature by 40; after you do so, Tidal Shield ends.</p>"
        },
        "featType": {
            "value": "ancestry"
        },
        "level": {
            "value": 17
        },
        "location": "",
        "prerequisites": [],
        "rarity": {
            "value": "common"
        },
        "rules": [],
        "source": {
            "value": ""
        },
        "traits": {
            "custom": "",
            "rarity": {
                "value": "common"
            },
            "value": [
                "abjuration",
                "concentrate",
                "primal",
                "undine",
                "water"
            ]
        },
        "usage": {
            "value": ""
        }
    },
    "effects": [],
    "flags": {},
    "img": "systems/pf2e/icons/features/feats/feats.jpg",
    "name": "Tidal Shield",
    "permission": {
        "default": 0
    },
    "type": "feat"
}
