{
    "_id": "PGyzFBwuTgypU8cD",
    "data": {
        "actionCategory": {
            "value": ""
        },
        "actionType": {
            "value": "passive"
        },
        "actions": {
            "value": ""
        },
        "description": {
            "chat": "",
            "unidentified": "",
            "value": "<p>Undead harmed by your positive energy might flee, compelled by an innate aversion to the force opposite undeath. When you use a @Compendium[pf2e.spells-srd.Heal]{Heal} spell to damage undead, each undead of your level or lower that critically fails its save gains the @Compendium[pf2e.conditionitems.Fleeing]{Fleeing} condition for 1 round.</p>"
        },
        "featType": {
            "value": "class"
        },
        "level": {
            "value": 2
        },
        "location": "",
        "prerequisites": [],
        "rarity": {
            "value": "common"
        },
        "rules": [],
        "source": {
            "value": ""
        },
        "traits": {
            "custom": "",
            "rarity": {
                "value": "common"
            },
            "value": [
                "cleric"
            ]
        }
    },
    "effects": [],
    "flags": {},
    "img": "systems/pf2e/icons/features/feats/feats.jpg",
    "name": "Turn Undead",
    "permission": {
        "default": 0
    },
    "type": "feat"
}
