{
    "_id": "MD33E76f2olLnDZb",
    "data": {
        "actionCategory": {
            "value": ""
        },
        "actionType": {
            "value": "passive"
        },
        "actions": {
            "value": ""
        },
        "description": {
            "chat": "",
            "unidentified": "",
            "value": "<p>Your limbs produce strange, sucker-like growths that allow you to adhere to walls, objects, and most other surfaces. You gain a @Compendium[pf2e.actionspf2e.Climb]{Climb} Speed equal to your half your land Speed (minimum 5 feet). If you have the @Compendium[pf2e.feats-srd.Quick Climb]{Quick Climb} feat, your climb Speed is equal to your land Speed. In addition, you gain a +2 circumstance bonus to your Reflex DC to avoid being @Compendium[pf2e.actionspf2e.Disarm]{Disarmed}.</p>"
        },
        "featType": {
            "value": "archetype"
        },
        "level": {
            "value": "12"
        },
        "prerequisites": {
            "value": [
                "Oozemorph Dedication"
            ]
        },
        "rarity": {
            "value": "common"
        },
        "rules": [],
        "source": {
            "value": ""
        },
        "traits": {
            "custom": "",
            "rarity": {
                "value": "common"
            },
            "selected": {
                "archetype": "Archetype"
            },
            "value": [
                "archetype"
            ]
        }
    },
    "effects": [],
    "flags": {},
    "img": "systems/pf2e/icons/features/feats/feats.jpg",
    "name": "Uncanny Suction",
    "permission": {
        "default": 0
    },
    "type": "feat"
}
