{
    "_id": "pgIrr8xrlCXbRAeo",
    "data": {
        "actionCategory": {
            "value": ""
        },
        "actionType": {
            "value": "passive"
        },
        "actions": {
            "value": ""
        },
        "description": {
            "chat": "",
            "unidentified": "",
            "value": "<p>Your work as an investigator makes you familiar with the criminal element. You might be a criminal yourself, or you might have gained an understanding of how they operate from the outside. You become trained in Underworld Lore, and you gain your @Compendium[pf2e.actionspf2e.Pursue a Lead]{Pursue a Lead} circumstance bonus to Thievery checks to @Compendium[pf2e.actionspf2e.Investigate]{Investigate} the subject of your lead (such as checks to @Compendium[pf2e.actionspf2e.Steal]{Steal} a clue from a suspect or @Compendium[pf2e.actionspf2e.Pick a Lock]{Pick a Lock} to open a safe with damning documents).</p>"
        },
        "featType": {
            "value": "class"
        },
        "level": {
            "value": "1"
        },
        "prerequisites": {
            "value": [
                ""
            ]
        },
        "rarity": {
            "value": "common"
        },
        "rules": [],
        "source": {
            "value": ""
        },
        "traits": {
            "custom": "",
            "rarity": {
                "value": "common"
            },
            "value": [
                "investigator"
            ]
        }
    },
    "effects": [],
    "flags": {},
    "img": "systems/pf2e/icons/features/feats/feats.jpg",
    "name": "Underworld Investigator",
    "permission": {
        "default": 0
    },
    "type": "feat"
}
