{
    "_id": "7vUOlVqjheZV0Nmc",
    "data": {
        "actionCategory": {
            "value": ""
        },
        "actionType": {
            "value": "passive"
        },
        "actions": {
            "value": ""
        },
        "description": {
            "chat": "",
            "unidentified": "",
            "value": "<p>Your connection to the First World has grown, and its positive energy flows into you rapidly. If you rest for 10 minutes, you gain Hit Points equal to your Constitution modifier × half your level. This is cumulative with any healing you receive from Treat Wounds.</p>"
        },
        "featType": {
            "value": "ancestry"
        },
        "level": {
            "value": 9
        },
        "prerequisites": [],
        "rarity": {
            "value": "common"
        },
        "rules": [],
        "source": {
            "value": ""
        },
        "traits": {
            "custom": "",
            "rarity": {
                "value": "common"
            },
            "value": [
                "gnome"
            ]
        }
    },
    "effects": [],
    "flags": {},
    "img": "systems/pf2e/icons/features/feats/feats.jpg",
    "name": "Vivacious Conduit",
    "permission": {
        "default": 0
    },
    "type": "feat"
}
