{
    "_id": "Sq9muixjFptJO8Ae",
    "data": {
        "actionCategory": {
            "value": ""
        },
        "actionType": {
            "value": "passive"
        },
        "actions": {
            "value": ""
        },
        "description": {
            "chat": "",
            "unidentified": "",
            "value": "<p>Your home is an animated structure that obeys your commands. By performing a rite that takes 1 day, you create an animated object from a hut, small house, covered wagon, tent, or similar construction of up to Huge size.</p>\n<p>The hut uses your AC, saving throw modifiers, and Perception modifier and has 150 HP and Hardness 10. It has the construct armor ability, meaning once it's reduced to less than half its Hit Points, or immediately upon being damaged by a critical hit, its AC is reduced by 4 until it is repaired.</p>\n<p>The hut can't attack or attempt skill checks. You can give the hut a command as a single action, which has the auditory and concentrate traits; after 1 round of reconfiguring itself, the hut then follows that command until you give it a different command.</p>\n<ul>\n<li><strong>Guard</strong> The hut watches for trespassers within 120 feet using your Perception modifier and screams if it spots any.</li>\n<li><strong>Lock</strong> Each entrance to the hut is sealed with a @Compendium[pf2e.spells-srd.Lock]{Lock} spell.</li>\n<li><strong>Move</strong> The hut gains a Speed of 60 feet, growing giant bird or bone legs, if necessary, and follows an extremely basic movement command you give it, such as \"follow me\" or \"move that direction.\" While perfectly suitable for overland travel, the hut's broad movements and 1-round delay on response time are too imprecise to predictably direct in a combat encounter or other situation where seconds and precise locations count.</li>\n<li><strong>Hide</strong> The hut appears to be a normal, mundane object of its type. This is a 10th-level illusion effect.</li>\n</ul>\n<p>You can have only one hut at a time. If you animate a new hut, your previous hut immediately reverts to its original, mundane form. If you die, the hut continues following the last order you gave it indefinitely.</p>"
        },
        "featType": {
            "value": "class"
        },
        "level": {
            "value": "20"
        },
        "prerequisites": {
            "value": [
                ""
            ]
        },
        "rarity": {
            "value": "common"
        },
        "rules": [],
        "source": {
            "value": ""
        },
        "traits": {
            "custom": "",
            "rarity": {
                "value": "common"
            },
            "value": [
                "witch"
            ]
        }
    },
    "effects": [],
    "flags": {},
    "img": "systems/pf2e/icons/features/feats/feats.jpg",
    "name": "Witch's Hut",
    "permission": {
        "default": 0
    },
    "type": "feat"
}
