{
    "_id": "hUSknn3LYmT7eKzT",
    "data": {
        "actionCategory": {
            "value": ""
        },
        "actionType": {
            "value": "passive"
        },
        "actions": {
            "value": ""
        },
        "description": {
            "chat": "",
            "unidentified": "",
            "value": "<p><strong>Moderate Boon</strong>: Your poisons are everlasting.</p>\n<p>If your @Compendium[pf2e.actionspf2e.Strike]{Strike} with a poisoned weapon critically fails, or succeeds but fails to deal slashing or piercing damage, the poison is not spent. The poison is still spent once successfully applied to a creature.</p>"
        },
        "featType": {
            "value": "deityboon"
        },
        "level": {
            "value": "0"
        },
        "prerequisites": {
            "value": ""
        },
        "rarity": {
            "value": "common"
        },
        "rules": [],
        "source": {
            "value": ""
        },
        "traits": {
            "custom": "",
            "rarity": {
                "value": "common"
            },
            "selected": {},
            "value": []
        }
    },
    "effects": [],
    "flags": {},
    "img": "systems/pf2e/icons/deity/Norgorber.png",
    "name": "Norgorber - Moderate Boon",
    "permission": {
        "default": 0
    },
    "type": "feat"
}
