{
    "_id": "hzThZ50RRdfTYTKc",
    "data": {
        "attributes": {
            "ac": {
                "value": 32
            },
            "hardness": 5,
            "hasHealth": true,
            "hp": {
                "details": "to ruin the nozzle (making it impossible to disable, in which case the only way to disarm the bomb is to destroy both its tanks); <b>Tank Hardness</b> 15; <b>Tank HP</b> 80 (BT 40) to destroy one of the tanks (both tanks must be destroyed to disarm the bomb",
                "max": 20,
                "temp": 0,
                "tempmax": 0,
                "value": 20
            },
            "stealth": {
                "details": "The bomb uses Oggvurm's initiative roll as its Stealth roll",
                "value": 0
            }
        },
        "creatureType": "",
        "customModifiers": {},
        "details": {
            "description": "A clockwork bomb releases gouts of poisonous smoke. The smoke issues forth from a single nozzle attached to two tanks of pressurized poison",
            "disable": "three DC 31 Thievery (expert) checks to Disable a Device to disable the latches that lock the nozzle in place, then one DC 35 Thievery (master) check to Disable a Device to turn off the nozzle; DCs decrease by 2 if Oggvurm is immobilized, paralyzed, unconscious, or dead",
            "isComplex": true,
            "level": 11,
            "reset": "The trap issues smoke for 3 minutes before its tanks run dry. The tanks must be replaced before the bomb can be reactivated.",
            "routine": "(1 action) On its turn, the bomb spews forth a smoky gout of airborne blackfinger blight poison. The cloud fills a 20-foot radius, or a 10-foot radius if only one tank remains intact. If the bomb is already in the center of a blackfinger blight cloud, the radius of that cloud increases by 20 feet (or 10 feet, if only one tank remains intact) instead."
        },
        "flavourText": "",
        "nethysUrl": "",
        "recallKnowledgeText": "",
        "saves": {
            "fortitude": {
                "rank": 0,
                "saveDetail": "",
                "value": 24
            },
            "reflex": {
                "rank": 0,
                "saveDetail": "",
                "value": 26
            },
            "will": {
                "rank": 0,
                "saveDetail": "",
                "value": 0
            }
        },
        "schema": {
            "version": {
                "value": ""
            }
        },
        "sidebarText": "",
        "source": {
            "value": ""
        },
        "statusEffects": [],
        "traits": {
            "ci": [],
            "di": {
                "custom": "",
                "selected": {},
                "value": [
                    "critical-hits",
                    "object-immunities",
                    "precision"
                ]
            },
            "dr": [],
            "dv": [],
            "traits": {
                "custom": "",
                "value": [
                    "alchemical",
                    "mechanical"
                ]
            }
        }
    },
    "effects": [],
    "flags": {},
    "img": "systems/pf2e/icons/default-icons/hazard.svg",
    "items": [
        {
            "_id": "FH3nsGdSWs8rbUYr",
            "data": {
                "actionCategory": {
                    "value": "offensive"
                },
                "actionType": {
                    "value": "reaction"
                },
                "actions": {
                    "value": ""
                },
                "description": {
                    "chat": "",
                    "unidentified": "",
                    "value": "<p><strong>Trigger</strong> The bomb is Activated, which requires 3 actions; <strong>Effect</strong> The bomb releases a smoky cloud of blackfinger blightin a 20-foot radius. Creatures within the smoke are concealed from other creatures. Any creature that starts its turn in the smoke must roll a saving throw to avoid being afflicted by blackfinger blight poison (see page 78). The cloud remains for 1 minute or until dispersed by strong winds.</p>"
                },
                "rarity": {
                    "value": "common"
                },
                "requirements": {
                    "value": ""
                },
                "rules": [],
                "source": {
                    "value": ""
                },
                "traits": {
                    "custom": "",
                    "rarity": {
                        "value": "common"
                    },
                    "value": [
                        "alchemical",
                        "poison"
                    ]
                },
                "trigger": {
                    "value": ""
                },
                "usage": {
                    "value": "held-in-one-hand"
                },
                "weapon": {
                    "value": ""
                }
            },
            "effects": [],
            "flags": {},
            "img": "systems/pf2e/icons/actions/Reaction.png",
            "name": "Poisonous Cloud",
            "type": "action"
        }
    ],
    "name": "Clockwork Poison Bomb",
    "permission": {
        "default": 0
    },
    "token": {
        "actorData": {},
        "actorId": "hzThZ50RRdfTYTKc",
        "actorLink": false,
        "bar1": {
            "attribute": "attributes.hp"
        },
        "bar2": {},
        "brightLight": 0,
        "brightSight": 0,
        "dimLight": 0,
        "dimSight": 0,
        "displayBars": 20,
        "displayName": 20,
        "disposition": -1,
        "flags": {},
        "height": 1,
        "img": "systems/pf2e/icons/default-icons/hazard.svg",
        "lightAlpha": 1,
        "lightAngle": 360,
        "lockRotation": false,
        "name": "Clockwork Poison Bomb",
        "randomImg": false,
        "rotation": 0,
        "scale": 1,
        "sightAngle": 360,
        "tint": null,
        "vision": false,
        "width": 1
    },
    "type": "hazard"
}
