{
    "_id": "IPDwS5pTgU3Cq6Nl",
    "data": {
        "actionCategory": {
            "value": ""
        },
        "actionType": {
            "value": "passive"
        },
        "actions": {
            "value": ""
        },
        "description": {
            "chat": "",
            "unidentified": "",
            "value": "<p>Your skill with armor improves, increasing your ability to prevent blows. Your proficiency ranks for light, medium, and heavy armor, as well as for unarmored defense, increase to master.</p>"
        },
        "featType": {
            "value": "classfeature"
        },
        "level": {
            "value": 17
        },
        "location": "",
        "prerequisites": {
            "value": ""
        },
        "rarity": {
            "value": "common"
        },
        "rules": [],
        "source": {
            "value": ""
        },
        "traits": {
            "custom": "",
            "rarity": {
                "value": "common"
            },
            "value": [
                "fighter"
            ]
        }
    },
    "effects": [
        {
            "_id": "TCaThokUi6RlBGv2",
            "changes": [
                {
                    "key": "data.martial.unarmored.rank",
                    "mode": 4,
                    "value": 3
                },
                {
                    "key": "data.martial.light.rank",
                    "mode": 4,
                    "value": 3
                },
                {
                    "key": "data.martial.medium.rank",
                    "mode": 4,
                    "value": 3
                },
                {
                    "key": "data.martial.heavy.rank",
                    "mode": 4,
                    "value": 3
                }
            ],
            "disabled": false,
            "duration": {
                "rounds": null,
                "seconds": null,
                "startRound": null,
                "startTime": null,
                "startTurn": null,
                "turns": null
            },
            "flags": {},
            "icon": "systems/pf2e/icons/features/classes/armor-mastery.jpg",
            "label": "Armor Mastery (Level 17)",
            "origin": "",
            "tint": "",
            "transfer": true
        }
    ],
    "flags": {},
    "img": "systems/pf2e/icons/features/classes/armor-mastery.jpg",
    "name": "Armor Mastery (Level 17)",
    "permission": {
        "default": 0
    },
    "type": "feat"
}
