{
    "_id": "qhJfRnkCRrMI4G1O",
    "data": {
        "ability": {
            "value": ""
        },
        "area": {
            "areaType": "",
            "value": null
        },
        "areasize": {
            "value": "5-foot emanation or more"
        },
        "components": {
            "value": "verbal"
        },
        "cost": {
            "value": ""
        },
        "damage": {
            "applyMod": false,
            "value": ""
        },
        "damageType": {
            "value": ""
        },
        "description": {
            "chat": "",
            "unidentified": "",
            "value": "<p>You utter phrases in an unknown tongue, assaulting the minds of those nearby. Each target must attempt a Will save. Regardless of the result of its save, each target is then temporarily immune for 1 minute. You can increase the number of actions it takes to Cast the Spell (to a maximum of 3 actions total). For each additional action, increase the emanation's radius by 5 feet, to a maximum of 10 extra feet for 3 actions.</p>\n<hr />\n<p><strong>Success</strong> The target is unaffected.</p>\n<p><strong>Failure</strong> The target is @Compendium[pf2e.conditionitems.Stupefied]{Stupefied 2}.</p>\n<p><strong>Critical Failure</strong> The target is @Compendium[pf2e.conditionitems.Confused]{Confused}.</p>\n<hr />\n<p><strong>Heightened (+3)</strong> The initial radius increases by 5 feet.</p>"
        },
        "duration": {
            "value": "1 round"
        },
        "hasCounteractCheck": {
            "value": false
        },
        "level": {
            "value": 3
        },
        "location": {
            "value": ""
        },
        "materials": {
            "value": ""
        },
        "prepared": {
            "value": ""
        },
        "primarycheck": {
            "value": ""
        },
        "range": {
            "value": ""
        },
        "rarity": {
            "value": "common"
        },
        "rules": [],
        "save": {
            "basic": "",
            "value": "will"
        },
        "scaling": {
            "formula": "",
            "mode": "none"
        },
        "school": {
            "value": "enc"
        },
        "secondarycasters": {
            "value": ""
        },
        "secondarycheck": {
            "value": ""
        },
        "source": {
            "value": ""
        },
        "spellCategorie": {
            "value": "focus"
        },
        "spellCategory": {
            "value": ""
        },
        "spellType": {
            "value": "save"
        },
        "sustained": {
            "value": false
        },
        "target": {
            "value": "each foe in the area"
        },
        "time": {
            "value": "1 to 3"
        },
        "traditions": {
            "value": [
                "focus"
            ]
        },
        "traits": {
            "custom": "",
            "rarity": {
                "value": "uncommon"
            },
            "value": [
                "air",
                "auditory",
                "aura",
                "concentrate",
                "extradimensional",
                "fear",
                "fortune",
                "metamagic",
                "move",
                "litany",
                "possession",
                "prediction",
                "revelation",
                "sleep",
                "shadow",
                "stance"
            ]
        }
    },
    "effects": [],
    "flags": {},
    "img": "systems/pf2e/icons/spells/aberrant-whispers.jpg",
    "name": "Aberrant Whispers",
    "permission": {
        "default": 0
    },
    "type": "spell"
}
