{
    "_id": "GUnw9YXaW3YyaCAU",
    "data": {
        "ability": {
            "value": ""
        },
        "area": {
            "areaType": "",
            "value": null
        },
        "areasize": {
            "value": ""
        },
        "components": {
            "value": "somatic, verbal"
        },
        "cost": {
            "value": ""
        },
        "damage": {
            "applyMod": false,
            "value": ""
        },
        "damageType": {
            "value": ""
        },
        "description": {
            "chat": "",
            "unidentified": "",
            "value": "<p>You make subtle changes to yourself to adapt to the situation. Choose one of the following options that applies to you.</p>\n<ul>\n<li>If you are in water, you gain a @Compendium[pf2e.spell-effects.Spell Effect: Adapt Self (Swim)]{swim Speed} equal to half your Speed.</li>\n<li>If you are in water, you become able to breathe water.</li>\n<li>If it's too dark for you to see, you gain @Compendium[pf2e.spell-effects.Spell Effect: Adapt Self (Darkvision)]{Darkvision}.</li>\n<li>If you are in an environment of severe heat or severe cold, you are protected from the effects of severe heat or severe cold, and the spell lasts 10 minutes.</li>\n</ul>"
        },
        "duration": {
            "value": "1 minute"
        },
        "hasCounteractCheck": {
            "value": false
        },
        "level": {
            "value": 1
        },
        "location": {
            "value": ""
        },
        "materials": {
            "value": ""
        },
        "prepared": {
            "value": ""
        },
        "primarycheck": {
            "value": ""
        },
        "range": {
            "value": ""
        },
        "rarity": {
            "value": "common"
        },
        "rules": [],
        "save": {
            "basic": "",
            "value": ""
        },
        "scaling": {
            "formula": "",
            "mode": "none"
        },
        "school": {
            "value": "trs"
        },
        "secondarycasters": {
            "value": ""
        },
        "secondarycheck": {
            "value": ""
        },
        "source": {
            "value": ""
        },
        "spellCategorie": {
            "value": "focus"
        },
        "spellCategory": {
            "value": ""
        },
        "spellType": {
            "value": "utility"
        },
        "sustained": {
            "value": false
        },
        "target": {
            "value": ""
        },
        "time": {
            "value": "2"
        },
        "traditions": {
            "custom": "",
            "value": [
                "focus"
            ]
        },
        "traits": {
            "custom": "",
            "rarity": {
                "value": "common"
            },
            "value": [
                "cleric",
                "morph",
                "transmutation"
            ]
        }
    },
    "effects": [],
    "flags": {},
    "img": "systems/pf2e/icons/spells/adapt-self.jpg",
    "name": "Adapt Self",
    "permission": {
        "default": 0
    },
    "type": "spell"
}
