{
    "_id": "57ulIxg3Of2wCbEh",
    "data": {
        "ability": {
            "value": ""
        },
        "area": {
            "areaType": "",
            "value": null
        },
        "areasize": {
            "value": ""
        },
        "components": {
            "value": "somatic"
        },
        "cost": {
            "value": ""
        },
        "damage": {
            "applyMod": false,
            "value": "3d12"
        },
        "damageType": {
            "value": "electricity"
        },
        "description": {
            "chat": "",
            "unidentified": "",
            "value": "<p><span>You create an @Compendium[pf2e.hazards.Electric Latch Rune]{Electric Latch Rune} hazard on the target, creating a special crystalline lock on the object. You can also substitute your spell DC for any of the hazard's listed DCs. You can have only one such hazard active at a time, and if you cast this spell while a previous <em>electric latch rune</em> is active, the older hazard discharges harmlessly.</span></p>\n<hr />\n<p><strong>Heightened (+2)</strong> The hazard's damage increases by 1d12.</p>"
        },
        "duration": {
            "value": ""
        },
        "hasCounteractCheck": {
            "value": false
        },
        "level": {
            "value": 3
        },
        "location": {
            "value": ""
        },
        "materials": {
            "value": ""
        },
        "prepared": {
            "value": ""
        },
        "primarycheck": {
            "value": ""
        },
        "range": {
            "value": ""
        },
        "rarity": {
            "value": "common"
        },
        "rules": [],
        "save": {
            "basic": "",
            "value": ""
        },
        "scaling": {
            "formula": "1d12",
            "mode": "level2"
        },
        "school": {
            "value": "evo"
        },
        "secondarycasters": {
            "value": ""
        },
        "secondarycheck": {
            "value": ""
        },
        "source": {
            "value": ""
        },
        "spellCategorie": {
            "value": "focus"
        },
        "spellCategory": {
            "value": ""
        },
        "spellType": {
            "value": "attack"
        },
        "sustained": {
            "value": false
        },
        "target": {
            "value": "1 hinge or latch"
        },
        "time": {
            "value": "2"
        },
        "traditions": {
            "custom": "",
            "value": [
                "focus"
            ]
        },
        "traits": {
            "custom": "",
            "rarity": {
                "value": "rare"
            },
            "value": [
                "electricity",
                "evocation"
            ]
        }
    },
    "effects": [],
    "flags": {},
    "img": "systems/pf2e/icons/spells/electrified-crystal-ward.jpg",
    "name": "Electrified Crystal Ward",
    "permission": {
        "default": 0
    },
    "type": "spell"
}
