{
    "_id": "Zmh4ynfnCtwKeAYl",
    "data": {
        "ability": {
            "value": ""
        },
        "area": {
            "areaType": "",
            "value": null
        },
        "areasize": {
            "value": ""
        },
        "components": {
            "value": "varies"
        },
        "cost": {
            "value": ""
        },
        "damage": {
            "applyMod": false,
            "value": "1d8"
        },
        "damageType": {
            "value": "healing"
        },
        "description": {
            "chat": "",
            "unidentified": "",
            "value": "<p>You heal an animal's wounds, restoring 1d8 Hit Points to the target. The number of actions spent Casting this Spell determines its effect.</p>\n<ul>\n<li><span class=\"pf2-icon\">1</span> <strong>somatic</strong> The spell has a range of touch.</li>\n<li><span class=\"pf2-icon\">2</span> <strong>somatic, verbal</strong> The spell has a range of 30 feet and restores an additional 8 Hit Points to the target.</li>\n</ul>\n<hr />\n<p>Heightened (+1) The amount of healing increases by 1d8, and the additional healing for the 2-action version increases by 8.</p>"
        },
        "duration": {
            "value": ""
        },
        "hasCounteractCheck": {
            "value": false
        },
        "level": {
            "value": 1
        },
        "location": {
            "value": ""
        },
        "materials": {
            "value": ""
        },
        "prepared": {
            "value": ""
        },
        "primarycheck": {
            "value": ""
        },
        "range": {
            "value": "varies"
        },
        "rarity": {
            "value": "common"
        },
        "rules": [],
        "save": {
            "basic": "",
            "value": ""
        },
        "scaling": {
            "formula": "1d8",
            "mode": "level1"
        },
        "school": {
            "value": "nec"
        },
        "secondarycasters": {
            "value": ""
        },
        "secondarycheck": {
            "value": ""
        },
        "source": {
            "value": ""
        },
        "spellCategorie": {
            "value": "focus"
        },
        "spellCategory": {
            "value": ""
        },
        "spellType": {
            "value": "heal"
        },
        "sustained": {
            "value": false
        },
        "target": {
            "value": "1 willing living animal creature"
        },
        "time": {
            "value": "1 or 2"
        },
        "traditions": {
            "value": [
                "focus"
            ]
        },
        "traits": {
            "custom": "",
            "rarity": {
                "value": "uncommon"
            },
            "value": [
                "druid",
                "healing",
                "necromancy",
                "positive"
            ]
        }
    },
    "effects": [],
    "flags": {},
    "img": "systems/pf2e/icons/spells/heal-animal.jpg",
    "name": "Heal Animal",
    "permission": {
        "default": 0
    },
    "type": "spell"
}
