{
    "_id": "gSUQlTDYoLDGAsCP",
    "data": {
        "ability": {
            "value": ""
        },
        "area": {
            "value": ""
        },
        "areasize": {
            "value": ""
        },
        "components": {
            "value": "verbal"
        },
        "cost": {
            "value": ""
        },
        "damage": {
            "applyMod": false,
            "value": "2"
        },
        "damageType": {
            "value": "healing"
        },
        "description": {
            "chat": "",
            "unidentified": "",
            "value": "<p>Your divine singing mends wounds and provides a temporary respite from harm. The target gains fast healing 2. When you @Compendium[pf2e.actionspf2e.Cast a Spell]{Cast this Spell} and each time you @Compendium[pf2e.actionspf2e.Sustain a Spell]{Sustain the Spell}, the target gains 2 temporary Hit Points, which last for 1 round.</p>\n<hr />\n<p><strong>Heightened (+1)</strong> The fast healing and temporary Hit Points<br />each increase by 2.</p>"
        },
        "duration": {
            "value": "sustained up to 4 rounds"
        },
        "hasCounteractCheck": {
            "value": false
        },
        "level": {
            "value": 1
        },
        "location": {
            "value": ""
        },
        "materials": {
            "value": ""
        },
        "prepared": {
            "value": ""
        },
        "primarycheck": {
            "value": ""
        },
        "range": {
            "value": "30 feet"
        },
        "rarity": {
            "value": "common"
        },
        "rules": [],
        "save": {
            "basic": "",
            "value": ""
        },
        "scaling": {
            "formula": "2",
            "mode": "level1"
        },
        "school": {
            "value": "nec"
        },
        "secondarycasters": {
            "value": ""
        },
        "secondarycheck": {
            "value": ""
        },
        "source": {
            "value": ""
        },
        "spellCategorie": {
            "value": "focus"
        },
        "spellCategory": {
            "value": ""
        },
        "spellType": {
            "value": "heal"
        },
        "sustained": {
            "value": false
        },
        "target": {
            "value": "you or 1 ally"
        },
        "time": {
            "value": "2"
        },
        "traditions": {
            "custom": "",
            "value": [
                "occult"
            ]
        },
        "traits": {
            "custom": "",
            "rarity": {
                "value": "uncommon"
            },
            "value": [
                "bard",
                "composition",
                "healing",
                "necromancy",
                "positive"
            ]
        }
    },
    "effects": [],
    "flags": {},
    "img": "systems/pf2e/icons/spells/hymn-of-healing.jpg",
    "name": "Hymn of Healing",
    "permission": {
        "default": 0
    },
    "type": "spell"
}
