{
    "_id": "QVMjPfXlpnmeuWKS",
    "data": {
        "ability": {
            "value": ""
        },
        "area": {
            "value": ""
        },
        "areasize": {
            "value": ""
        },
        "components": {
            "value": "somatic, verbal"
        },
        "cost": {
            "value": ""
        },
        "damage": {
            "applyMod": false,
            "value": "2d6"
        },
        "damageType": {
            "value": "piercing"
        },
        "description": {
            "chat": "",
            "unidentified": "",
            "value": "<p>You use the power of nightmares to magically replicate the venomous attack of the aberrant and cunning Leng spiders. You deal [[/r 2d6 #piercing]] piercing damage to the touched creature and afflict it with Leng spider venom. If the target takes piercing damage, they must attempt a Fortitude save.</p>\n<hr />\n<p><strong>Critical Success</strong> The target is unaffected.</p>\n<p><strong>Success</strong> The target takes [[/r 2d6 #poison]] poison damage.</p>\n<p><strong>Failure</strong> The target is afflicted with Leng Spider Venom at stage 1.</p>\n<p><strong>Critical Failure</strong> The target is afflicted with Leng spider venom at stage 2.</p>\n<hr />\n<p><strong>Leng Spider Venom</strong> (incapacitation, poison) <strong>Level 13</strong></p>\n<p><strong>Maximum Duration</strong> 6 rounds</p>\n<p><strong>Stage 1</strong> [[/r 2d6 #poison]] poison damage and @Compendium[pf2e.conditionitems.Drained]{Drained 1} (1 round)</p>\n<p><strong>Stage 2</strong> [[/r 3d6 #poison]] poison damage and @Compendium[pf2e.conditionitems.Drained]{Drained 2} (1 round)</p>\n<p><strong>Stage 3</strong> [[/r 4d6 #poison]] poison damage, @Compendium[pf2e.conditionitems.Drained]{Drained 2}, and @Compendium[pf2e.conditionitems.Confused]{Confused} (1 round)</p>"
        },
        "duration": {
            "value": ""
        },
        "hasCounteractCheck": {
            "value": false
        },
        "level": {
            "value": 7
        },
        "location": {
            "value": "Z9TGJ4zsSKnZVV9u"
        },
        "materials": {
            "value": ""
        },
        "prepared": {
            "value": ""
        },
        "primarycheck": {
            "value": ""
        },
        "range": {
            "value": "touch"
        },
        "rarity": {
            "value": "common"
        },
        "rules": [],
        "save": {
            "basic": "",
            "value": "fortitude"
        },
        "scaling": {
            "formula": "",
            "mode": "none"
        },
        "school": {
            "value": "nec"
        },
        "secondarycasters": {
            "value": ""
        },
        "secondarycheck": {
            "value": ""
        },
        "source": {
            "value": ""
        },
        "spellCategorie": {
            "value": "spell"
        },
        "spellCategory": {
            "value": ""
        },
        "spellType": {
            "value": "save"
        },
        "sustained": {
            "value": false
        },
        "target": {
            "value": "1 creature"
        },
        "time": {
            "value": "2"
        },
        "traditions": {
            "custom": "",
            "value": [
                "arcane",
                "occult"
            ]
        },
        "traits": {
            "custom": "",
            "rarity": {
                "value": "uncommon"
            },
            "selected": [],
            "value": [
                "necromancy",
                "poison"
            ]
        }
    },
    "effects": [],
    "flags": {},
    "img": "systems/pf2e/icons/spells/spider-sting.jpg",
    "name": "Leng Sting",
    "permission": {
        "default": 0
    },
    "type": "spell"
}
