{
    "_id": "kwlKUxEuT8T15YW6",
    "data": {
        "ability": {
            "value": ""
        },
        "area": {
            "areaType": "",
            "value": null
        },
        "areasize": {
            "value": ""
        },
        "components": {
            "value": "verbal"
        },
        "cost": {
            "value": ""
        },
        "damage": {
            "applyMod": false,
            "value": ""
        },
        "damageType": {
            "value": ""
        },
        "description": {
            "chat": "",
            "unidentified": "",
            "value": "<p>You enhance a summoned creature with the power of the elements. If your next action is to cast either @Compendium[pf2e.spells-srd.Summon Animal]{Summon Animal} or @Compendium[pf2e.spells-srd.Summon Plant or Fungus]{Summon Plant or Fungus}, choose air, earth, fire, or water, and the creature you summon gains the corresponding abilities.</p>\n<ul>\n<li><strong>@Compendium[pf2e.spell-effects.Spell Effect: Primal Summons (Air)]{Air}</strong> The creature gains a fly Speed of 60 feet.</li>\n<li><strong>@Compendium[pf2e.spell-effects.Spell Effect: Primal Summons (Earth)]{Earth}</strong> The creature gains a burrow Speed of 20 feet, reduces its land Speed by 10 feet (minimum 5 feet), and gains resistance 5 to physical damage.</li>\n<li><strong>@Compendium[pf2e.spell-effects.Spell Effect: Primal Summons (Fire)]{Fire}</strong> The creature's attacks deal 1d6 extra fire damage, and it gains resistance 10 to fire and weakness 5 to cold and water.</li>\n<li><strong>@Compendium[pf2e.spell-effects.Spell Effect: Primal Summons (Water)]{Water}</strong> The creature gains a swim Speed of 60 feet, can spend 1 action after a melee attack to attempt a Shove (ignoring multiple attack penalty), and gains resistance 5 to fire.</li>\n</ul>"
        },
        "duration": {
            "value": ""
        },
        "hasCounteractCheck": {
            "value": false
        },
        "level": {
            "value": 6
        },
        "location": {
            "value": ""
        },
        "materials": {
            "value": ""
        },
        "prepared": {
            "value": ""
        },
        "primarycheck": {
            "value": ""
        },
        "range": {
            "value": ""
        },
        "rarity": {
            "value": "common"
        },
        "rules": [],
        "save": {
            "basic": "",
            "value": ""
        },
        "scaling": {
            "formula": "",
            "mode": "none"
        },
        "school": {
            "value": "con"
        },
        "secondarycasters": {
            "value": ""
        },
        "secondarycheck": {
            "value": ""
        },
        "source": {
            "value": ""
        },
        "spellCategorie": {
            "value": "focus"
        },
        "spellCategory": {
            "value": ""
        },
        "spellType": {
            "value": "utility"
        },
        "sustained": {
            "value": false
        },
        "target": {
            "value": ""
        },
        "time": {
            "value": "free"
        },
        "traditions": {
            "value": [
                "focus"
            ]
        },
        "traits": {
            "custom": "",
            "rarity": {
                "value": "uncommon"
            },
            "value": [
                "conjuration",
                "druid"
            ]
        }
    },
    "effects": [],
    "flags": {},
    "img": "systems/pf2e/icons/spells/primal-summons.jpg",
    "name": "Primal Summons",
    "permission": {
        "default": 0
    },
    "type": "spell"
}
