{
    "_id": "5A1wMPdzN1OWE4cY",
    "data": {
        "actionCategory": {
            "value": ""
        },
        "actionType": {
            "value": "passive"
        },
        "actions": {
            "value": ""
        },
        "description": {
            "value": "<p>You live in a vertically-oriented home, and you’re a consummate climber. You gain the @Compendium[pf2e.feats-srd.Combat Climber]{Combat Climber}&nbsp;skill feat, even if you don’t meet the prerequisites. You can use your clawed feet and tail to Climb, leaving your hands free. Additionally, if you succeed at an Athletics check to Climb, you critically succeed instead.</p>"
        },
        "featType": {
            "value": "heritage"
        },
        "level": {
            "value": 1
        },
        "location": "",
        "prerequisites": [],
        "rarity": {
            "value": "common"
        },
        "rules": [],
        "source": {
            "value": ""
        },
        "traits": {
            "custom": "",
            "rarity": {
                "value": "common"
            },
            "value": [
                "kobold"
            ]
        }
    },
    "effects": [],
    "flags": {},
    "img": "systems/pf2e/icons/default-icons/feat.svg",
    "name": "Caveclimber Kobold",
    "permission": {
        "default": 0
    },
    "type": "feat"
}
