{
    "_id": "mnhmhOKWLiOD0lev",
    "data": {
        "actionCategory": {
            "value": ""
        },
        "actionType": {
            "value": "passive"
        },
        "actions": {
            "value": ""
        },
        "description": {
            "value": "<p>Your synthetic body resists ailments better than those of purely biological organisms. You gain a +1 circumstance bonus to saving throws against diseases, poisons, and radiation.</p>"
        },
        "featType": {
            "value": "ancestryfeature"
        },
        "level": {
            "value": 1
        },
        "location": "",
        "prerequisites": [],
        "rarity": {
            "value": "common"
        },
        "rules": [],
        "source": {
            "value": ""
        },
        "traits": {
            "custom": "",
            "rarity": {
                "value": "common"
            },
            "value": [
                "android"
            ]
        }
    },
    "effects": [],
    "flags": {},
    "img": "systems/pf2e/icons/default-icons/feat.svg",
    "name": "Constructed",
    "permission": {
        "default": 0
    },
    "type": "feat"
}
