{
    "_id": "rdY0vyXfrIlkQgqd",
    "data": {
        "actionCategory": {
            "value": ""
        },
        "actionType": {
            "value": "passive"
        },
        "actions": {
            "value": ""
        },
        "description": {
            "chat": "",
            "unidentified": "",
            "value": "<p><strong>[Slotless]</strong></p>\n<p><strong>Prerequisites</strong><strong>:</strong> Tier 1 with the Verdant Wheel</p>\n<p><strong>Cost</strong>: 0 Fame</p>\n<p><strong>Effect</strong>: Serve as the event organizer or headquarters volunteer for an event that includes Pathfinder Society adventures or assist these volunteers in setting up or cleaning up after such an event. When you do so, you earn 2 additional Fame and Reputation with the Verdant Wheel faction on the next scenario you play.</p>\n<p><strong>Special</strong>: You can benefit from this boon only a number of times equal to your current Reputation Tier with the Verdant Wheel faction. Each time you fulfill the requirements of this boon, mark it on your next Chronicle sheet along with the associated Reputation Tier. Have the GM sign beside this notation. You can only earn additional Fame and Reputation with this boon for one character per adventure you run, even if you have multiple characters who could benefit from this boon.</p>"
        },
        "featType": {
            "value": "pfsboon"
        },
        "level": {
            "value": "0"
        },
        "prerequisites": {
            "value": ""
        },
        "rarity": {
            "value": "common"
        },
        "rules": [],
        "source": {
            "value": ""
        },
        "traits": {
            "custom": "",
            "rarity": {
                "value": "common"
            },
            "selected": {},
            "value": []
        }
    },
    "effects": [],
    "flags": {},
    "img": "systems/pf2e/icons/default-icons/mystery-man.png",
    "name": "Beginnings and Endings",
    "permission": {
        "default": 0
    },
    "type": "feat"
}
