{
    "_id": "UWZfORgk1yVNV0RF",
    "data": {
        "actionCategory": {
            "value": ""
        },
        "actionType": {
            "value": "free"
        },
        "actions": {
            "value": ""
        },
        "description": {
            "chat": "",
            "unidentified": "",
            "value": "<p><strong>[Generic]</strong></p>\n<p><strong>Prerequisites:</strong> Tier 3 with the Horizon Hunters</p>\n<p><strong>Cost</strong>: 4 Fame</p>\n<p><strong>Effect</strong>: By traveling so widely, you have developed an intuitive talent for using esoteric techniques. Once per adventure, you can activate this boon as a free action to apply these techniques, gaining a +1 circumstance bonus to either all of your attack rolls or all of your skill checks for 1 round.</p>"
        },
        "featType": {
            "value": "pfsboon"
        },
        "level": {
            "value": "0"
        },
        "prerequisites": {
            "value": ""
        },
        "rarity": {
            "value": "common"
        },
        "rules": [],
        "source": {
            "value": ""
        },
        "traits": {
            "custom": "",
            "rarity": {
                "value": "common"
            },
            "selected": {},
            "value": []
        }
    },
    "effects": [],
    "flags": {},
    "img": "systems/pf2e/icons/default-icons/mystery-man.png",
    "name": "Exotic Edge",
    "permission": {
        "default": 0
    },
    "type": "feat"
}
